{
  "version": "1.0",
  "defaultProvider": "cdnjs",
  "libraries": [
    {
      "library": "jquery@3.3.1",
      "files": [
        "jquery.min.js",
        "jquery.js",
        "jquery.min.map"
      ],
      "destination": "wwwroot/lib/jquery/"
    },
    {
      "library": "bootstrap-select@1.13.9",
      "destination": "wwwroot/lib/bootstrap-select/",
      "files": [
        "css/bootstrap-select.min.css",
        "js/bootstrap-select.min.js"
      ]
    },
    {
      "provider": "unpkg",
      "library": "d3@5.9.2",
      "destination": "wwwroot/lib/d3/"
    },
    {
      "provider": "unpkg",
      "library": "leaflet@1.4.0",
      "files": [
        "dist/leaflet.js",
        "dist/leaflet.css",
        "dist/leaflet.js.map",
        "dist/images/marker-shadow.png",
        "dist/images/marker-icon.png",
        "dist/images/marker-icon-2x.png"
      ],
      "destination": "wwwroot/lib/leaflet/"
      
    },
    {
      "provider": "unpkg",
      "library": "bootstrap@4.1.3",
      "destination": "wwwroot/lib/bootstrap/"
    },
    {
      "provider": "unpkg",
      "library": "popper.js@1.14.7",
      "files": [
        "dist/umd/popper.min.js",
        "dist/umd/popper.min.js.map"
      ],
      "destination": "wwwroot/lib/popper/"
    }
  ]
}