<?xml version="1.0" encoding="UTF-8" standalone="no"?>
<!-- Created with Inkscape (http://www.inkscape.org/) -->

<svg
   xmlns:osb="http://www.openswatchbook.org/uri/2009/osb"
   xmlns:dc="http://purl.org/dc/elements/1.1/"
   xmlns:cc="http://creativecommons.org/ns#"
   xmlns:rdf="http://www.w3.org/1999/02/22-rdf-syntax-ns#"
   xmlns:svg="http://www.w3.org/2000/svg"
   xmlns="http://www.w3.org/2000/svg"
   xmlns:sodipodi="http://sodipodi.sourceforge.net/DTD/sodipodi-0.dtd"
   xmlns:inkscape="http://www.inkscape.org/namespaces/inkscape"
   width="210mm"
   height="297mm"
   viewBox="0 0 210 297"
   version="1.1"
   id="svg8"
   inkscape:version="0.92.4 (5da689c313, 2019-01-14)"
   sodipodi:docname="HiveMessage.svg">
  <defs
     id="defs2">
    <linearGradient
       id="linearGradient25368"
       osb:paint="gradient">
      <stop
         style="stop-color:#000000;stop-opacity:1;"
         offset="0"
         id="stop25364" />
      <stop
         style="stop-color:#000000;stop-opacity:0;"
         offset="1"
         id="stop25366" />
    </linearGradient>
    <linearGradient
       id="linearGradient25350"
       osb:paint="solid">
      <stop
         style="stop-color:#000000;stop-opacity:1;"
         offset="0"
         id="stop25348" />
    </linearGradient>
  </defs>
  <sodipodi:namedview
     id="base"
     pagecolor="#ffffff"
     bordercolor="#666666"
     borderopacity="1.0"
     inkscape:pageopacity="0.0"
     inkscape:pageshadow="2"
     inkscape:zoom="0.7"
     inkscape:cx="316.04832"
     inkscape:cy="887.34587"
     inkscape:document-units="mm"
     inkscape:current-layer="layer1"
     showgrid="true"
     inkscape:snap-global="true"
     showguides="true"
     inkscape:snap-grids="false"
     inkscape:window-width="1680"
     inkscape:window-height="987"
     inkscape:window-x="-8"
     inkscape:window-y="-8"
     inkscape:window-maximized="1">
    <inkscape:grid
       type="xygrid"
       id="grid3818" />
  </sodipodi:namedview>
  <metadata
     id="metadata5">
    <rdf:RDF>
      <cc:Work
         rdf:about="">
        <dc:format>image/svg+xml</dc:format>
        <dc:type
           rdf:resource="http://purl.org/dc/dcmitype/StillImage" />
        <dc:title></dc:title>
      </cc:Work>
    </rdf:RDF>
  </metadata>
  <g
     inkscape:label="Ebene 1"
     inkscape:groupmode="layer"
     id="layer1">
    <g
       id="layer1-6"
       inkscape:label="Ebene 1"
       transform="matrix(1.1294643,0,0,1.0521978,-14.079602,-21.550368)">
      <path
         sodipodi:nodetypes="scsssss"
         inkscape:connector-curvature="0"
         id="path3729"
         d="m 190.49999,106.5 c 0,31.75 -29.33332,79.375 -50.49999,119.0625 C 118.83334,265.25 105.83333,297 105.83333,297 105.83333,297 91.166666,265.25 70,225.5625 48.833334,185.875 21.166666,138.25 21.166664,106.5 c -2e-6,-46.760108 37.906558,-84.666665 84.666666,-84.666664 46.76011,2e-6 84.66665,37.906558 84.66666,84.666664 z"
         style="stroke-width:0.26458332" />
      <circle
         r="74.083336"
         cy="106.5"
         cx="105.83333"
         id="path3742"
         style="fill:#ffffff;stroke-width:0.26458332" />
    </g>
    <text
       xml:space="preserve"
       style="font-style:normal;font-weight:normal;font-size:50.79999924px;line-height:6.61458302px;font-family:sans-serif;letter-spacing:0px;word-spacing:0px;fill:#000000;fill-opacity:1;stroke:none;stroke-width:0.26458332"
       x="92.207985"
       y="74.63176"
       id="text3796"><tspan
         sodipodi:role="line"
         id="tspan3794"
         x="92.207985"
         y="92.535431"
         style="font-size:50.79999924px;stroke-width:0.26458332" /></text>
    <path
       style="fill:#ffcc00;stroke-width:1.01015258"
       d="M 379.38416,635.61011 C 303.33794,631.32226 231.60738,601.43731 176.70669,551.16901 133.29873,511.42371 102.46987,458.96132 89.525523,402.8102 81.708899,368.90257 80.959779,327.18408 87.528768,291.61095 101.36344,216.69189 147.46151,148.24166 214.27427,103.40875 257.28698,74.546233 305.6367,56.838425 359.76694,50.1229 c 16.92208,-2.099394 57.0941,-2.368439 73.70529,-0.493629 76.63859,8.649761 144.12031,40.343265 195.8864,92.000119 45.89599,45.79913 74.05705,102.31999 83.07266,166.73154 2.02865,14.49358 1.73242,56.05913 -0.50393,70.71068 -7.68311,50.33602 -25.39342,92.60103 -55.64476,132.79417 -10.53019,13.99082 -32.1004,36.60471 -46.26492,48.50346 -63.00707,52.9284 -146.0242,80.01155 -230.63352,75.24087 z"
       id="path3832"
       inkscape:connector-curvature="0"
       transform="scale(0.26458333)" />
    <path
       sodipodi:type="star"
       style="opacity:1;fill:none;fill-opacity:1;stroke:#000000;stroke-width:0.80000001;stroke-linejoin:round;stroke-miterlimit:4;stroke-dasharray:none;stroke-opacity:1"
       id="path4139"
       sodipodi:sides="6"
       sodipodi:cx="77.674103"
       sodipodi:cy="66.434525"
       sodipodi:r1="13.21093"
       sodipodi:r2="11.441"
       sodipodi:arg1="0.65351508"
       sodipodi:arg2="1.1771139"
       inkscape:flatsided="true"
       inkscape:rounded="0"
       inkscape:randomized="0"
       d="m 88.162942,74.466518 -12.20033,5.067604 -10.488839,-8.031993 1.711491,-13.099598 12.20033,-5.067604 10.488839,8.031993 z"
       transform="rotate(22.4,77.674103,66.434524)" />
    <path
       style="fill:none;stroke-width:0.17857143"
       d="m 271.61244,288.26562 -1.62541,-0.95617 1.35756,-2.75561 c 2.52504,-5.12541 3.58791,-7.92055 3.85227,-10.13074 0.0314,-0.26282 0.10171,-0.54994 0.15616,-0.63804 0.0827,-0.13386 0.003,-0.85524 -0.32154,-2.90195 -0.0638,-0.40246 -0.48923,-1.29839 -0.7844,-1.65179 -0.14355,-0.17187 -0.20837,-0.3125 -0.14404,-0.3125 0.0643,0 -0.0237,-0.15117 -0.19554,-0.33593 -0.17188,-0.18477 -0.47322,-0.54889 -0.66964,-0.80917 -0.41814,-0.55405 -1.29269,-1.43208 -2.38811,-2.39761 -0.80577,-0.71022 -0.82339,-0.75772 -1.33556,-3.60015 -0.0265,-0.14732 -0.14749,-0.45032 -0.26877,-0.67333 -0.12128,-0.22301 -0.1753,-0.47862 -0.12005,-0.56802 0.0553,-0.0894 0.0238,-0.20989 -0.0698,-0.26777 -0.0937,-0.0579 -0.4113,-0.61538 -0.7059,-1.2389 -0.2946,-0.62351 -0.66125,-1.18187 -0.81479,-1.24079 -0.15354,-0.0589 -0.27916,-0.23018 -0.27916,-0.38058 0,-0.15041 -0.0659,-0.27346 -0.14641,-0.27346 -0.0805,0 -0.41984,-0.24412 -0.75403,-0.54249 -0.3342,-0.29837 -0.99153,-0.67884 -1.46074,-0.84549 -0.4692,-0.16665 -0.8531,-0.36923 -0.8531,-0.45019 0,-0.081 -0.0839,-0.0954 -0.1864,-0.032 -0.10251,0.0634 -0.29056,0.0288 -0.41787,-0.0769 -0.20732,-0.17206 -2.92429,-0.80725 -4.30645,-1.00679 -1.87281,-0.27037 -8.34272,-0.78237 -8.52678,-0.67477 -0.0737,0.0431 -0.13393,-0.79711 -0.13393,-1.86706 v -1.94536 l 1.74477,-0.0281 c 3.67699,-0.0592 8.67456,-0.45676 10.75523,-0.85556 0.73661,-0.14118 1.47991,-0.25944 1.65178,-0.2628 0.17188,-0.003 0.3125,-0.085 0.3125,-0.18141 0,-0.0964 0.10045,-0.157 0.22322,-0.13462 0.12277,0.0224 0.53437,-0.0946 0.91466,-0.26003 0.3803,-0.16539 0.75524,-0.30071 0.83319,-0.30071 0.22226,0 1.77893,-1.50232 1.77893,-1.71682 0,-0.10566 0.15753,-0.33467 0.35006,-0.50891 0.19253,-0.17424 0.33617,-0.36749 0.3192,-0.42946 -0.017,-0.062 0.0694,-0.29347 0.19195,-0.51445 0.12253,-0.22098 0.18177,-0.40179 0.13164,-0.40179 -0.0501,0 -0.005,-0.22098 0.0998,-0.49107 0.10504,-0.27009 0.21725,-0.65179 0.24935,-0.84821 0.0321,-0.19643 0.10772,-0.55804 0.16805,-0.80358 0.16526,-0.67254 0.40758,-2.24965 0.52556,-3.4205 0.0494,-0.48976 0.56873,-1.03353 1.80364,-1.88832 0.39286,-0.27193 0.93527,-0.72398 1.20536,-1.00454 0.27009,-0.28057 0.49107,-0.4577 0.49107,-0.39364 0,0.0641 0.36161,-0.24 0.80357,-0.67571 0.44196,-0.43572 0.80357,-0.88142 0.80357,-0.99046 0,-0.10904 0.0804,-0.19825 0.17857,-0.19825 0.0982,0 0.17857,-0.1148 0.17857,-0.25511 0,-0.1403 0.10045,-0.36129 0.22322,-0.49107 0.12277,-0.12978 0.25133,-0.39668 0.2857,-0.59311 0.0344,-0.19643 0.12245,-0.39732 0.19572,-0.44643 0.3936,-0.26378 0.3794,-1.00308 -0.0789,-4.10714 -0.0217,-0.14732 -0.13127,-0.49407 -0.24337,-0.77055 -0.11211,-0.27649 -0.20383,-0.60461 -0.20383,-0.72917 0,-0.12456 -0.0603,-0.28674 -0.13393,-0.3604 -0.0737,-0.0737 -0.14398,-0.20759 -0.15625,-0.29762 -0.0123,-0.09 -0.0424,-0.20387 -0.067,-0.25298 -0.0246,-0.0491 -0.0638,-0.14955 -0.0872,-0.22321 -0.22106,-0.69606 -0.85536,-2.03404 -2.80856,-5.92424 -1.25377,-2.49717 -2.26023,-4.55544 -2.23657,-4.57393 0.28512,-0.2228 2.97837,-1.68933 3.10242,-1.68933 0.0919,0 0.31907,0.26116 0.50473,0.58036 1.936,3.32845 5.51898,8.00808 7.37015,9.62595 0.2984,0.2608 0.57187,0.54205 0.6077,0.625 0.10134,0.23459 1.57114,1.14979 2.00126,1.24612 0.68222,0.1528 0.92104,0.21607 0.92104,0.244 0,0.038 0.64937,0.17663 1.02679,0.21927 0.17187,0.0194 0.3125,0.0871 0.3125,0.15048 0,0.10235 0.454,0.0832 1.96428,-0.0827 0.48611,-0.0534 1.36065,-0.25787 1.78572,-0.4175 0.14732,-0.0553 0.42857,-0.11108 0.625,-0.1239 0.19643,-0.0128 0.51786,-0.11204 0.71428,-0.22051 0.19643,-0.10846 0.61739,-0.25307 0.93546,-0.32135 0.31807,-0.0683 0.62313,-0.19668 0.67792,-0.28533 0.0996,-0.16111 0.19934,-0.12729 1.27132,0.43101 0.3098,0.16135 0.73695,0.29336 0.94924,0.29336 0.21228,0 0.53398,0.0792 0.71488,0.17602 0.89898,0.48112 4.77655,0.56396 5.49897,0.11748 0.12104,-0.0748 0.22007,-0.0786 0.22007,-0.009 0,0.0701 0.14063,0.005 0.3125,-0.14405 0.17188,-0.14935 0.5312,-0.32348 0.79849,-0.38694 0.26729,-0.0635 0.73075,-0.33542 1.02991,-0.60434 1.24359,-1.11788 2.7008,-2.59737 3.3388,-3.38986 0.37456,-0.46525 0.86182,-1.0467 1.0828,-1.29211 0.22098,-0.2454 0.40179,-0.52955 0.40179,-0.63143 0,-0.10188 0.24107,-0.44918 0.53571,-0.77177 0.29464,-0.3226 0.53572,-0.62871 0.53572,-0.68025 0,-0.0958 1.08248,-1.68709 1.25751,-1.84853 0.0532,-0.0491 0.4625,-0.66637 0.90946,-1.3717 l 0.81266,-1.28242 1.61073,0.92746 1.61072,0.92747 -1.04161,1.96209 c -1.14425,2.15544 -2.97792,5.84112 -3.46372,6.9621 -0.17025,0.39286 -0.41479,0.95536 -0.54342,1.25 -0.12863,0.29464 -0.23397,0.57589 -0.2341,0.625 -1.3e-4,0.0491 -0.12231,0.3246 -0.27152,0.6122 -0.14921,0.2876 -0.22831,0.59246 -0.17577,0.67746 0.0525,0.085 0.0169,0.25148 -0.0791,0.36995 -0.30135,0.37177 -0.70857,2.95877 -0.56797,3.60825 0.0213,0.0982 0.0242,0.31978 0.007,0.49238 -0.0176,0.17259 0.0983,0.44411 0.25756,0.60338 0.15927,0.15926 0.24985,0.3931 0.2013,0.51963 -0.0486,0.12653 0.0272,0.27436 0.1683,0.32851 0.14112,0.0541 0.25658,0.24531 0.25658,0.4248 0,0.36208 1.79202,2.36344 2.11623,2.36344 0.11286,0 0.2052,0.12054 0.2052,0.26786 0,0.14732 0.12054,0.26785 0.26786,0.26785 0.14732,0 0.26785,0.0804 0.26785,0.17858 0,0.0982 0.0831,0.17857 0.18459,0.17857 0.10153,0 0.40374,0.22098 0.67159,0.49107 0.26785,0.27009 0.78691,0.69196 1.15348,0.9375 0.36656,0.24553 0.67335,0.52678 0.68176,0.625 0.008,0.0982 0.0404,0.5 0.0711,0.89286 0.0542,0.6927 0.15909,1.47477 0.37132,2.76785 0.0564,0.34375 0.13112,0.80964 0.166,1.03532 0.0349,0.22567 0.16187,0.52895 0.28221,0.67395 0.12034,0.14501 0.16955,0.3129 0.10935,0.37311 -0.0602,0.0602 0.0687,0.35959 0.28636,0.66532 0.2177,0.30573 0.35595,0.57336 0.30722,0.59473 -0.0487,0.0214 0.052,0.20309 0.22391,0.40382 0.17188,0.20074 0.3125,0.4717 0.3125,0.60213 0,0.13044 0.2009,0.32869 0.44643,0.44056 0.24554,0.11187 0.44643,0.28549 0.44643,0.38581 0,0.10032 0.10045,0.16231 0.22321,0.13775 0.12277,-0.0246 0.20511,0.0499 0.18298,0.16535 -0.0221,0.1155 0.19885,0.26251 0.49107,0.32669 0.29222,0.0642 0.53131,0.18815 0.53131,0.27548 0,0.0873 0.12054,0.11252 0.26786,0.056 0.15169,-0.0582 0.26786,-0.004 0.26786,0.12465 0,0.12509 0.0529,0.17456 0.11749,0.10994 0.0646,-0.0646 0.20619,-0.0439 0.31458,0.0461 0.43064,0.3574 4.28402,0.93084 7.8715,1.1714 0.98214,0.0659 2.10714,0.14239 2.5,0.17009 0.39285,0.0277 1.57812,0.0613 2.63393,0.0747 l 1.91964,0.0243 v 1.85512 1.85513 l -0.58036,0.0909 c -0.3192,0.05 -0.98214,0.10138 -1.47321,0.11419 -3.23061,0.0843 -10.2219,1.03317 -10.73215,1.45663 -0.10825,0.0898 -0.40968,0.18097 -0.66984,0.2025 -0.26016,0.0215 -0.47301,0.0858 -0.47301,0.1429 0,0.0571 -0.26131,0.19824 -0.58069,0.31373 -0.31938,0.11549 -0.81995,0.39279 -1.11237,0.61623 -0.74593,0.56995 -2.04679,1.97463 -1.9595,2.11588 0.04,0.0647 -0.0842,0.25965 -0.27601,0.43322 -0.1918,0.17358 -0.3057,0.38521 -0.25311,0.4703 0.0526,0.0851 -0.003,0.1547 -0.12326,0.1547 -0.12038,0 -0.166,0.0529 -0.10137,0.1175 0.0646,0.0646 0.0426,0.20775 -0.0489,0.31805 -0.0915,0.1103 -0.20881,0.39894 -0.26059,0.64143 -0.0518,0.24249 -0.17965,0.76231 -0.28415,1.15517 -0.17158,0.645 -0.27426,1.07309 -0.44977,1.875 -0.0322,0.14732 -0.0648,0.40029 -0.0723,0.56216 -0.008,0.16187 -0.31501,0.58065 -0.68331,0.93061 -0.3683,0.34996 -1.09152,1.03597 -1.60714,1.52446 -0.51563,0.48848 -0.9375,0.97847 -0.9375,1.08885 0,0.11039 -0.0804,0.15105 -0.17857,0.0904 -0.0982,-0.0607 -0.17858,0.0149 -0.17858,0.16803 0,0.15312 -0.0749,0.27839 -0.16653,0.27839 -0.0916,0 -0.21452,0.15117 -0.27316,0.33594 -0.0586,0.18476 -0.26495,0.51848 -0.45846,0.74161 -0.19352,0.22312 -0.3544,0.57418 -0.35752,0.78013 -0.003,0.20596 -0.12367,0.53045 -0.26786,0.7211 -0.35112,0.46422 -0.34447,3.05218 0.0115,4.4748 0.14745,0.58928 0.30129,1.20685 0.34188,1.37237 0.0861,0.35138 0.85552,2.49259 1.17514,3.27048 0.33069,0.80485 1.25795,2.77841 2.45358,5.22214 l 1.06973,2.18643 -1.59596,0.9133 c -0.87778,0.50231 -1.62186,0.88449 -1.65351,0.84929 -0.0316,-0.0352 -0.32427,-0.50598 -0.65029,-1.04616 -0.32601,-0.54018 -0.63769,-1.02232 -0.69261,-1.07143 -0.0549,-0.0491 -0.41442,-0.6116 -0.79887,-1.25 -0.38446,-0.63839 -0.86587,-1.3739 -1.06981,-1.63447 -0.20394,-0.26057 -0.61188,-0.88182 -0.90652,-1.38055 -0.29464,-0.49874 -0.59057,-0.90832 -0.65761,-0.91017 -0.067,-0.002 -0.16826,-0.144 -0.22493,-0.31588 -0.0567,-0.17187 -0.34247,-0.59375 -0.63512,-0.9375 -0.86444,-1.01538 -0.89305,-1.05222 -0.89305,-1.15009 0,-0.10985 -0.71909,-0.93702 -1.61611,-1.85901 -0.60125,-0.61798 -2.57024,-2.05471 -2.88142,-2.1025 -0.0799,-0.0123 -0.1855,-0.0424 -0.23461,-0.067 -0.0491,-0.0246 -0.16964,-0.0647 -0.26786,-0.0893 -0.0982,-0.0246 -0.19866,-0.0636 -0.22321,-0.0868 -0.10769,-0.10177 -1.8478,-0.11582 -2.00893,-0.0162 -0.0982,0.0607 -0.41964,0.10874 -0.71428,0.10672 -0.29465,-0.002 -0.5862,0.0656 -0.6479,0.15026 -0.0617,0.0847 -0.36305,0.17528 -0.66967,0.20137 -0.30661,0.0261 -0.67104,0.14168 -0.80983,0.25687 -0.1388,0.11519 -0.45812,0.24675 -0.7096,0.29235 -0.25149,0.0456 -0.64015,0.15246 -0.8637,0.23745 -0.22355,0.085 -0.4868,0.17278 -0.58502,0.19507 -0.0982,0.0223 -0.484,0.19636 -0.85731,0.38681 -0.58727,0.2996 -0.76775,0.31739 -1.33929,0.13197 -0.79537,-0.25803 -1.66741,-0.61259 -2.60979,-1.06109 -0.38458,-0.18303 -0.7698,-0.28918 -0.85603,-0.23588 -0.0862,0.0533 -0.27781,-0.004 -0.42571,-0.12628 -0.14791,-0.12275 -0.4859,-0.2439 -0.75111,-0.26922 -0.2652,-0.0253 -0.9065,-0.12108 -1.4251,-0.2128 -0.52582,-0.093 -0.98507,-0.0986 -1.03821,-0.0126 -0.0524,0.0848 -0.28973,0.11892 -0.52739,0.0758 -0.23766,-0.0431 -0.47617,-0.007 -0.53002,0.0801 -0.0539,0.0871 -0.20299,0.11809 -0.33143,0.0688 -0.12844,-0.0493 -0.33587,0.0337 -0.46095,0.18441 -0.12507,0.15071 -0.29866,0.22998 -0.38575,0.17616 -0.0871,-0.0538 -0.15834,-0.008 -0.15834,0.10178 0,0.1098 -0.0754,0.15303 -0.16759,0.0961 -0.0922,-0.057 -0.25045,0.0387 -0.35172,0.21268 -0.10126,0.17394 -0.18656,0.25741 -0.18954,0.18548 -0.004,-0.10695 -0.55089,0.35298 -1.48287,1.24809 -0.43172,0.41463 -1.20113,1.30451 -1.20113,1.38918 0,0.0545 -0.18081,0.2924 -0.40179,0.52874 -0.51323,0.54891 -0.67689,0.75371 -1.21332,1.51834 -0.24116,0.34375 -0.48142,0.66518 -0.53393,0.71428 -0.0947,0.0885 -0.51333,0.72665 -2.28473,3.48215 -0.5051,0.78571 -0.97976,1.51331 -1.0548,1.61689 -0.26017,0.3591 -0.58129,0.88674 -0.98286,1.61495 l -0.40357,0.73185 z m 23.89824,-16.23994 c 2.35607,-2.33879 3.21396,-4.11685 3.2222,-6.67829 0.008,-2.35602 -0.94706,-5.51216 -3.07089,-10.15281 -0.51042,-1.11529 -0.8974,-2.05845 -0.85994,-2.0959 0.0374,-0.0375 0.95904,1.27684 2.04798,2.92066 3.38371,5.10791 5.37509,7.38992 7.28297,8.34591 2.14884,1.07672 4.76651,0.77669 8.78256,-1.00664 0.41202,-0.18295 0.8339,-0.33265 0.9375,-0.33265 0.25501,0 0.24277,-0.20961 -0.16585,-2.83832 -0.6561,-4.22081 -1.66003,-6.00762 -4.00469,-7.1276 -2.09082,-0.99873 -5.13646,-1.48392 -11.62324,-1.85166 l -4.10714,-0.23284 3.12044,-0.22286 c 4.01347,-0.28665 7.92858,-0.9478 9.73765,-1.64441 1.35164,-0.52047 3.29713,-1.65702 3.30769,-1.93234 0.003,-0.0727 0.30413,-0.46806 0.66965,-0.87866 0.38637,-0.43403 0.86733,-1.29369 1.14893,-2.05357 0.56334,-1.52015 1.24013,-4.24216 1.10793,-4.45605 -0.05,-0.0809 -0.87069,-0.39487 -1.82374,-0.69769 -2.34621,-0.74548 -4.6583,-0.88862 -6.2379,-0.38619 -2.21665,0.70506 -4.56507,2.73218 -7.19136,6.20746 -1.28854,1.70508 -1.57453,2.10279 -2.72867,3.79459 -0.28859,0.42303 -0.55119,0.74266 -0.58356,0.71029 -0.0324,-0.0324 0.72375,-1.62401 1.68026,-3.537 2.72304,-5.44597 3.59777,-7.90989 3.62417,-10.2085 0.0284,-2.47141 -1.02909,-4.11341 -4.36745,-6.78152 -0.96264,-0.76936 -1.79398,-1.39884 -1.84744,-1.39884 -0.33549,0 -2.82914,2.03681 -4.16471,3.40171 -3.22594,3.29683 -2.96879,6.11262 1.36628,14.96086 0.83392,1.70209 1.48392,3.12701 1.44445,3.16648 -0.0395,0.0395 -0.42245,-0.42904 -0.85105,-1.04114 -3.82034,-5.45592 -6.28303,-7.98124 -8.768,-8.99097 -1.68022,-0.68274 -4.30205,-0.56281 -7.18759,0.32876 -0.67242,0.20777 -1.26319,0.48357 -1.31281,0.61288 -0.0496,0.12932 0.0765,1.00929 0.28024,1.9555 0.69688,3.23615 2.29564,5.64217 4.48967,6.75661 2.2184,1.12682 6.86355,2.02653 12.31906,2.38604 l 2.05358,0.13533 -3.03572,0.13878 c -5.84552,0.26724 -9.72138,0.75673 -11.73045,1.48144 -2.50213,0.90257 -3.42373,1.90819 -4.39623,4.797 -0.32734,0.97237 -1.03966,5.22188 -0.89712,5.35195 0.0327,0.0299 0.66219,0.31237 1.3988,0.62777 4.08641,1.74973 6.31898,1.97728 8.64991,0.88161 0.82459,-0.3876 2.92397,-2.31954 3.76908,-3.46847 0.28898,-0.39286 0.57483,-0.75446 0.63524,-0.80357 0.18726,-0.15223 1.91837,-2.66375 3.41917,-4.9606 0.78804,-1.206 1.46674,-2.15878 1.50825,-2.11728 0.0415,0.0415 -0.25946,0.78716 -0.66879,1.65703 -1.63532,3.47515 -2.83912,6.69935 -3.21542,8.61203 -0.12772,0.64922 -0.17874,1.74318 -0.12298,2.637 0.14245,2.28326 0.90064,3.7072 3.1963,6.00286 1.40897,1.40897 1.81713,1.72494 2.05574,1.5914 0.16375,-0.0916 0.93192,-0.79615 1.70704,-1.56558 z"
       id="path24527"
       inkscape:connector-curvature="0"
       transform="scale(0.26458333)" />
    <path
       sodipodi:type="star"
       style="opacity:1;fill:none;fill-opacity:1;stroke:#000000;stroke-width:0.80000001;stroke-linejoin:round;stroke-miterlimit:4;stroke-dasharray:none;stroke-opacity:1"
       id="path4139-9"
       sodipodi:sides="6"
       sodipodi:cx="77.674103"
       sodipodi:cy="66.434525"
       sodipodi:r1="13.21093"
       sodipodi:r2="11.441"
       sodipodi:arg1="0.65351508"
       sodipodi:arg2="1.1771139"
       inkscape:flatsided="true"
       inkscape:rounded="0"
       inkscape:randomized="0"
       d="m 88.162942,74.466518 -12.20033,5.067604 -10.488839,-8.031993 1.711491,-13.099598 12.20033,-5.067604 10.488839,8.031993 z"
       transform="rotate(22.4,58.843887,122.24667)" />
    <path
       sodipodi:type="star"
       style="opacity:1;fill:none;fill-opacity:1;stroke:#000000;stroke-width:0.80000001;stroke-linejoin:round;stroke-miterlimit:4;stroke-dasharray:none;stroke-opacity:1"
       id="path4139-9-2"
       sodipodi:sides="6"
       sodipodi:cx="77.674103"
       sodipodi:cy="66.434525"
       sodipodi:r1="13.21093"
       sodipodi:r2="11.441"
       sodipodi:arg1="0.65351508"
       sodipodi:arg2="1.1771139"
       inkscape:flatsided="true"
       inkscape:rounded="0"
       inkscape:randomized="0"
       d="m 88.162942,74.466518 -12.20033,5.067604 -10.488839,-8.031993 1.711491,-13.099598 12.20033,-5.067604 10.488839,8.031993 z"
       transform="rotate(22.4,116.59373,110.64804)" />
    <path
       sodipodi:type="star"
       style="opacity:1;fill:none;fill-opacity:1;stroke:#000000;stroke-width:0.80000001;stroke-linejoin:round;stroke-miterlimit:4;stroke-dasharray:none;stroke-opacity:1"
       id="path4139-9-2-1"
       sodipodi:sides="6"
       sodipodi:cx="77.674103"
       sodipodi:cy="66.434525"
       sodipodi:r1="13.21093"
       sodipodi:r2="11.441"
       sodipodi:arg1="0.65351508"
       sodipodi:arg2="1.1771139"
       inkscape:flatsided="true"
       inkscape:rounded="0"
       inkscape:randomized="0"
       d="m 88.162942,74.466518 -12.20033,5.067604 -10.488839,-8.031993 1.711491,-13.099598 12.20033,-5.067604 10.488839,8.031993 z"
       transform="rotate(22.4,97.763514,166.46018)" />
    <path
       sodipodi:type="star"
       style="opacity:1;fill:none;fill-opacity:1;stroke:#000000;stroke-width:0.80000001;stroke-linejoin:round;stroke-miterlimit:4;stroke-dasharray:none;stroke-opacity:1"
       id="path4139-9-2-1-4"
       sodipodi:sides="6"
       sodipodi:cx="77.674103"
       sodipodi:cy="66.434525"
       sodipodi:r1="13.21093"
       sodipodi:r2="11.441"
       sodipodi:arg1="0.65351508"
       sodipodi:arg2="1.1771139"
       inkscape:flatsided="true"
       inkscape:rounded="0"
       inkscape:randomized="0"
       d="m 88.162942,74.466518 -12.20033,5.067604 -10.488839,-8.031993 1.711491,-13.099598 12.20033,-5.067604 10.488839,8.031993 z"
       transform="rotate(22.4,155.51336,154.86156)" />
    <path
       sodipodi:type="star"
       style="opacity:1;fill:none;fill-opacity:1;stroke:#000000;stroke-width:0.80000001;stroke-linejoin:round;stroke-miterlimit:4;stroke-dasharray:none;stroke-opacity:1"
       id="path4139-9-2-1-4-5"
       sodipodi:sides="6"
       sodipodi:cx="77.674103"
       sodipodi:cy="66.434525"
       sodipodi:r1="13.21093"
       sodipodi:r2="11.441"
       sodipodi:arg1="0.65351508"
       sodipodi:arg2="1.1771139"
       inkscape:flatsided="true"
       inkscape:rounded="0"
       inkscape:randomized="0"
       d="m 88.162942,74.466518 -12.20033,5.067604 -10.488839,-8.031993 1.711491,-13.099598 12.20033,-5.067604 10.488839,8.031993 z"
       transform="rotate(22.4,40.013671,178.05881)" />
    <path
       sodipodi:type="star"
       style="opacity:1;fill:none;fill-opacity:1;stroke:#000000;stroke-width:0.80000001;stroke-linejoin:round;stroke-miterlimit:4;stroke-dasharray:none;stroke-opacity:1"
       id="path4139-9-2-1-4-5-8"
       sodipodi:sides="6"
       sodipodi:cx="77.674103"
       sodipodi:cy="66.434525"
       sodipodi:r1="13.21093"
       sodipodi:r2="11.441"
       sodipodi:arg1="0.65351508"
       sodipodi:arg2="1.1771139"
       inkscape:flatsided="true"
       inkscape:rounded="0"
       inkscape:randomized="0"
       d="m 88.162942,74.466518 -12.20033,5.067604 -10.488839,-8.031993 1.711491,-13.099598 12.20033,-5.067604 10.488839,8.031993 z"
       transform="rotate(22.4,1.0940447,133.8453)" />
    <path
       sodipodi:type="star"
       style="opacity:1;fill:none;fill-opacity:1;stroke:#000000;stroke-width:0.80000001;stroke-linejoin:round;stroke-miterlimit:4;stroke-dasharray:none;stroke-opacity:1"
       id="path4139-9-2-1-4-5-8-8"
       sodipodi:sides="6"
       sodipodi:cx="77.674103"
       sodipodi:cy="66.434525"
       sodipodi:r1="13.21093"
       sodipodi:r2="11.441"
       sodipodi:arg1="0.65351508"
       sodipodi:arg2="1.1771139"
       inkscape:flatsided="true"
       inkscape:rounded="0"
       inkscape:randomized="0"
       d="m 88.162942,74.466518 -12.20033,5.067604 -10.488839,-8.031993 1.711491,-13.099598 12.20033,-5.067604 10.488839,8.031993 z"
       transform="rotate(22.4,19.92426,78.033153)" />
    <path
       sodipodi:type="star"
       style="opacity:1;fill:none;fill-opacity:1;stroke:#000000;stroke-width:0.80000001;stroke-linejoin:round;stroke-miterlimit:4;stroke-dasharray:none;stroke-opacity:1"
       id="path4139-9-2-1-4-5-8-8-8"
       sodipodi:sides="6"
       sodipodi:cx="77.674103"
       sodipodi:cy="66.434525"
       sodipodi:r1="13.21093"
       sodipodi:r2="11.441"
       sodipodi:arg1="0.65351508"
       sodipodi:arg2="1.1771139"
       inkscape:flatsided="true"
       inkscape:rounded="0"
       inkscape:randomized="0"
       d="m 88.162942,74.466518 -12.20033,5.067604 -10.488839,-8.031993 1.711491,-13.099598 12.20033,-5.067604 10.488839,8.031993 z"
       transform="rotate(22.4,-17.736171,189.65744)" />
    <path
       sodipodi:type="star"
       style="opacity:1;fill:none;fill-opacity:1;stroke:#000000;stroke-width:0.80000001;stroke-linejoin:round;stroke-miterlimit:4;stroke-dasharray:none;stroke-opacity:1"
       id="path4139-9-2-1-4-5-8-8-9"
       sodipodi:sides="6"
       sodipodi:cx="77.674103"
       sodipodi:cy="66.434525"
       sodipodi:r1="13.21093"
       sodipodi:r2="11.441"
       sodipodi:arg1="0.65351508"
       sodipodi:arg2="1.1771139"
       inkscape:flatsided="true"
       inkscape:rounded="0"
       inkscape:randomized="0"
       d="m 88.162942,74.466518 -12.20033,5.067604 -10.488839,-8.031993 1.711491,-13.099598 12.20033,-5.067604 10.488839,8.031993 z"
       transform="rotate(22.4,21.183455,233.87095)" />
    <path
       sodipodi:type="star"
       style="opacity:1;fill:none;fill-opacity:1;stroke:#000000;stroke-width:0.80000001;stroke-linejoin:round;stroke-miterlimit:4;stroke-dasharray:none;stroke-opacity:1"
       id="path4139-9-2-1-4-5-8-8-6"
       sodipodi:sides="6"
       sodipodi:cx="77.674103"
       sodipodi:cy="66.434525"
       sodipodi:r1="13.21093"
       sodipodi:r2="11.441"
       sodipodi:arg1="0.65351508"
       sodipodi:arg2="1.1771139"
       inkscape:flatsided="true"
       inkscape:rounded="0"
       inkscape:randomized="0"
       d="m 88.162942,74.466518 -12.20033,5.067604 -10.488839,-8.031993 1.711491,-13.099598 12.20033,-5.067604 10.488839,8.031993 z"
       transform="rotate(22.4,78.933298,222.27232)" />
    <path
       sodipodi:type="star"
       style="opacity:1;fill:none;fill-opacity:1;stroke:#000000;stroke-width:0.80000001;stroke-linejoin:round;stroke-miterlimit:4;stroke-dasharray:none;stroke-opacity:1"
       id="path4139-9-2-1-4-5-8-8-60"
       sodipodi:sides="6"
       sodipodi:cx="77.674103"
       sodipodi:cy="66.434525"
       sodipodi:r1="13.21093"
       sodipodi:r2="11.441"
       sodipodi:arg1="0.65351508"
       sodipodi:arg2="1.1771139"
       inkscape:flatsided="true"
       inkscape:rounded="0"
       inkscape:randomized="0"
       d="m 88.162942,74.466518 -12.20033,5.067604 -10.488839,-8.031993 1.711491,-13.099598 12.20033,-5.067604 10.488839,8.031993 z"
       transform="rotate(22.4,136.68314,210.6737)" />
    <path
       sodipodi:type="star"
       style="opacity:1;fill:none;fill-opacity:1;stroke:#000000;stroke-width:0.80000001;stroke-linejoin:round;stroke-miterlimit:4;stroke-dasharray:none;stroke-opacity:1"
       id="path4139-9-2-1-4-5-8-8-4"
       sodipodi:sides="6"
       sodipodi:cx="77.674103"
       sodipodi:cy="66.434525"
       sodipodi:r1="13.21093"
       sodipodi:r2="11.441"
       sodipodi:arg1="0.65351508"
       sodipodi:arg2="1.1771139"
       inkscape:flatsided="true"
       inkscape:rounded="0"
       inkscape:randomized="0"
       d="m 88.162942,74.466518 -12.20033,5.067604 -10.488839,-8.031993 1.711491,-13.099598 12.20033,-5.067604 10.488839,8.031993 z"
       transform="rotate(22.4,-36.566387,245.46958)" />
    <path
       sodipodi:type="star"
       style="opacity:1;fill:none;fill-opacity:1;stroke:#000000;stroke-width:0.80000001;stroke-linejoin:round;stroke-miterlimit:4;stroke-dasharray:none;stroke-opacity:1"
       id="path4139-9-2-1-4-5-8-8-94"
       sodipodi:sides="6"
       sodipodi:cx="77.674103"
       sodipodi:cy="66.434525"
       sodipodi:r1="13.21093"
       sodipodi:r2="11.441"
       sodipodi:arg1="0.65351508"
       sodipodi:arg2="1.1771139"
       inkscape:flatsided="true"
       inkscape:rounded="0"
       inkscape:randomized="0"
       d="m 88.162942,74.466518 -12.20033,5.067604 -10.488839,-8.031993 1.711491,-13.099598 12.20033,-5.067604 10.488839,8.031993 z"
       transform="rotate(22.4,-75.486013,201.25607)" />
    <path
       sodipodi:type="star"
       style="opacity:1;fill:none;fill-opacity:1;stroke:#000000;stroke-width:0.80000001;stroke-linejoin:round;stroke-miterlimit:4;stroke-dasharray:none;stroke-opacity:1"
       id="path4139-9-2-1-4-5-8-8-82"
       sodipodi:sides="6"
       sodipodi:cx="77.674103"
       sodipodi:cy="66.434525"
       sodipodi:r1="13.21093"
       sodipodi:r2="11.441"
       sodipodi:arg1="0.65351508"
       sodipodi:arg2="1.1771139"
       inkscape:flatsided="true"
       inkscape:rounded="0"
       inkscape:randomized="0"
       d="m 88.162942,74.466518 -12.20033,5.067604 -10.488839,-8.031993 1.711491,-13.099598 12.20033,-5.067604 10.488839,8.031993 z"
       transform="rotate(22.4,-56.655798,145.44392)" />
    <path
       sodipodi:type="star"
       style="opacity:1;fill:none;fill-opacity:1;stroke:#000000;stroke-width:0.80000001;stroke-linejoin:round;stroke-miterlimit:4;stroke-dasharray:none;stroke-opacity:1"
       id="path4139-9-2-1-4-5-8-8-61"
       sodipodi:sides="6"
       sodipodi:cx="77.674103"
       sodipodi:cy="66.434525"
       sodipodi:r1="13.21093"
       sodipodi:r2="11.441"
       sodipodi:arg1="0.65351508"
       sodipodi:arg2="1.1771139"
       inkscape:flatsided="true"
       inkscape:rounded="0"
       inkscape:randomized="0"
       d="m 88.162942,74.466518 -12.20033,5.067604 -10.488839,-8.031993 1.711491,-13.099598 12.20033,-5.067604 10.488839,8.031993 z"
       transform="rotate(22.4,-37.825582,89.631783)" />
    <path
       sodipodi:type="star"
       style="opacity:1;fill:none;fill-opacity:1;stroke:#000000;stroke-width:0.80000001;stroke-linejoin:round;stroke-miterlimit:4;stroke-dasharray:none;stroke-opacity:1"
       id="path4139-9-2-1-4-5-8-8-61-2"
       sodipodi:sides="6"
       sodipodi:cx="77.674103"
       sodipodi:cy="66.434525"
       sodipodi:r1="13.21093"
       sodipodi:r2="11.441"
       sodipodi:arg1="0.65351508"
       sodipodi:arg2="1.1771139"
       inkscape:flatsided="true"
       inkscape:rounded="0"
       inkscape:randomized="0"
       d="m 88.162942,74.466518 -12.20033,5.067604 -10.488839,-8.031993 1.711491,-13.099598 12.20033,-5.067604 10.488839,8.031993 z"
       transform="rotate(22.4,117.85292,266.48584)" />
    <path
       sodipodi:type="star"
       style="opacity:1;fill:none;fill-opacity:1;stroke:#000000;stroke-width:0.80000001;stroke-linejoin:round;stroke-miterlimit:4;stroke-dasharray:none;stroke-opacity:1"
       id="path4139-9-2-1-4-5-8-8-61-8"
       sodipodi:sides="6"
       sodipodi:cx="77.674103"
       sodipodi:cy="66.434525"
       sodipodi:r1="13.21093"
       sodipodi:r2="11.441"
       sodipodi:arg1="0.65351508"
       sodipodi:arg2="1.1771139"
       inkscape:flatsided="true"
       inkscape:rounded="0"
       inkscape:randomized="0"
       d="m 88.162942,74.466518 -12.20033,5.067604 -10.488839,-8.031993 1.711491,-13.099598 12.20033,-5.067604 10.488839,8.031993 z"
       transform="rotate(22.4,60.103078,278.08447)" />
    <path
       sodipodi:type="star"
       style="opacity:1;fill:none;fill-opacity:1;stroke:#000000;stroke-width:0.80000001;stroke-linejoin:round;stroke-miterlimit:4;stroke-dasharray:none;stroke-opacity:1"
       id="path4139-9-2-1-4-5-8-8-61-6"
       sodipodi:sides="6"
       sodipodi:cx="77.674103"
       sodipodi:cy="66.434525"
       sodipodi:r1="13.21093"
       sodipodi:r2="11.441"
       sodipodi:arg1="0.65351508"
       sodipodi:arg2="1.1771139"
       inkscape:flatsided="true"
       inkscape:rounded="0"
       inkscape:randomized="0"
       d="m 88.162942,74.466518 -12.20033,5.067604 -10.488839,-8.031993 1.711491,-13.099598 12.20033,-5.067604 10.488839,8.031993 z"
       transform="rotate(22.4,2.3532394,289.68309)" />
    <path
       sodipodi:type="star"
       style="opacity:1;fill:none;fill-opacity:1;stroke:#000000;stroke-width:0.80000001;stroke-linejoin:round;stroke-miterlimit:4;stroke-dasharray:none;stroke-opacity:1"
       id="path4139-9-2-1-4-5-8-8-61-4"
       sodipodi:sides="6"
       sodipodi:cx="77.674103"
       sodipodi:cy="66.434525"
       sodipodi:r1="13.21093"
       sodipodi:r2="11.441"
       sodipodi:arg1="0.65351508"
       sodipodi:arg2="1.1771139"
       inkscape:flatsided="true"
       inkscape:rounded="0"
       inkscape:randomized="0"
       d="m 88.162942,74.466518 -12.20033,5.067604 -10.488839,-8.031993 1.711491,-13.099598 12.20033,-5.067604 10.488839,8.031993 z"
       transform="rotate(22.4,38.754476,22.221007)" />
    <path
       sodipodi:type="star"
       style="opacity:1;fill:none;fill-opacity:1;stroke:#000000;stroke-width:0.80000001;stroke-linejoin:round;stroke-miterlimit:4;stroke-dasharray:none;stroke-opacity:1"
       id="path4139-9-2-1-4-5-8-8-61-1"
       sodipodi:sides="6"
       sodipodi:cx="77.674103"
       sodipodi:cy="66.434525"
       sodipodi:r1="13.21093"
       sodipodi:r2="11.441"
       sodipodi:arg1="0.65351508"
       sodipodi:arg2="1.1771139"
       inkscape:flatsided="true"
       inkscape:rounded="0"
       inkscape:randomized="0"
       d="m 88.162942,74.466518 -12.20033,5.067604 -10.488839,-8.031993 1.711491,-13.099598 12.20033,-5.067604 10.488839,8.031993 z"
       transform="rotate(22.4,135.42395,54.835896)" />
    <path
       sodipodi:type="star"
       style="opacity:1;fill:none;fill-opacity:1;stroke:#000000;stroke-width:0.80000001;stroke-linejoin:round;stroke-miterlimit:4;stroke-dasharray:none;stroke-opacity:1"
       id="path4139-9-2-1-4-5-8-8-61-9"
       sodipodi:sides="6"
       sodipodi:cx="77.674103"
       sodipodi:cy="66.434525"
       sodipodi:r1="13.21093"
       sodipodi:r2="11.441"
       sodipodi:arg1="0.65351508"
       sodipodi:arg2="1.1771139"
       inkscape:flatsided="true"
       inkscape:rounded="0"
       inkscape:randomized="0"
       d="m 88.162942,74.466518 -12.20033,5.067604 -10.488839,-8.031993 1.711491,-13.099598 12.20033,-5.067604 10.488839,8.031993 z"
       transform="rotate(22.4,96.504318,10.62238)" />
    <path
       sodipodi:type="star"
       style="opacity:1;fill:none;fill-opacity:1;stroke:#000000;stroke-width:0.80000001;stroke-linejoin:round;stroke-miterlimit:4;stroke-dasharray:none;stroke-opacity:1"
       id="path4139-9-2-1-4-5-8-8-61-65"
       sodipodi:sides="6"
       sodipodi:cx="77.674103"
       sodipodi:cy="66.434525"
       sodipodi:r1="13.21093"
       sodipodi:r2="11.441"
       sodipodi:arg1="0.65351508"
       sodipodi:arg2="1.1771139"
       inkscape:flatsided="true"
       inkscape:rounded="0"
       inkscape:randomized="0"
       d="m 88.162942,74.466518 -12.20033,5.067604 -10.488839,-8.031993 1.711491,-13.099598 12.20033,-5.067604 10.488839,8.031993 z"
       transform="rotate(22.4,-18.995366,33.819634)" />
    <path
       sodipodi:type="star"
       style="opacity:1;fill:none;fill-opacity:1;stroke:#000000;stroke-width:0.80000001;stroke-linejoin:round;stroke-miterlimit:4;stroke-dasharray:none;stroke-opacity:1"
       id="path4139-9-2-1-4-5-8-8-61-18"
       sodipodi:sides="6"
       sodipodi:cx="77.674103"
       sodipodi:cy="66.434525"
       sodipodi:r1="13.21093"
       sodipodi:r2="11.441"
       sodipodi:arg1="0.65351508"
       sodipodi:arg2="1.1771139"
       inkscape:flatsided="true"
       inkscape:rounded="0"
       inkscape:randomized="0"
       d="m 88.162942,74.466518 -12.20033,5.067604 -10.488839,-8.031993 1.711491,-13.099598 12.20033,-5.067604 10.488839,8.031993 z"
       transform="rotate(22.4,-95.575424,101.23041)" />
    <path
       sodipodi:type="star"
       style="opacity:1;fill:none;fill-opacity:1;stroke:#000000;stroke-width:0.80000001;stroke-linejoin:round;stroke-miterlimit:4;stroke-dasharray:none;stroke-opacity:1"
       id="path4139-9-2-1-4-5-8-8-61-3"
       sodipodi:sides="6"
       sodipodi:cx="77.674103"
       sodipodi:cy="66.434525"
       sodipodi:r1="13.21093"
       sodipodi:r2="11.441"
       sodipodi:arg1="0.65351508"
       sodipodi:arg2="1.1771139"
       inkscape:flatsided="true"
       inkscape:rounded="0"
       inkscape:randomized="0"
       d="m 88.162942,74.466518 -12.20033,5.067604 -10.488839,-8.031993 1.711491,-13.099598 12.20033,-5.067604 10.488839,8.031993 z"
       transform="rotate(22.4,-76.745208,45.418261)" />
    <path
       sodipodi:type="star"
       style="opacity:1;fill:none;fill-opacity:1;stroke:#000000;stroke-width:0.80000001;stroke-linejoin:round;stroke-miterlimit:4;stroke-dasharray:none;stroke-opacity:1"
       id="path4139-9-2-1-4-5-8-8-61-7"
       sodipodi:sides="6"
       sodipodi:cx="77.674103"
       sodipodi:cy="66.434525"
       sodipodi:r1="13.21093"
       sodipodi:r2="11.441"
       sodipodi:arg1="0.65351508"
       sodipodi:arg2="1.1771139"
       inkscape:flatsided="true"
       inkscape:rounded="0"
       inkscape:randomized="0"
       d="m 88.162942,74.466518 -12.20033,5.067604 -10.488839,-8.031993 1.711491,-13.099598 12.20033,-5.067604 10.488839,8.031993 z"
       transform="rotate(22.4,-0.16515075,-21.99251)" />
    <path
       sodipodi:type="star"
       style="opacity:1;fill:none;fill-opacity:1;stroke:#000000;stroke-width:0.80000001;stroke-linejoin:round;stroke-miterlimit:4;stroke-dasharray:none;stroke-opacity:1"
       id="path4139-9-2-1-4-5-8-8-61-10"
       sodipodi:sides="6"
       sodipodi:cx="77.674103"
       sodipodi:cy="66.434525"
       sodipodi:r1="13.21093"
       sodipodi:r2="11.441"
       sodipodi:arg1="0.65351508"
       sodipodi:arg2="1.1771139"
       inkscape:flatsided="true"
       inkscape:rounded="0"
       inkscape:randomized="0"
       d="m 88.162942,74.466518 -12.20033,5.067604 -10.488839,-8.031993 1.711491,-13.099598 12.20033,-5.067604 10.488839,8.031993 z"
       transform="rotate(22.4,57.584691,-33.591137)" />
    <path
       sodipodi:type="star"
       style="opacity:1;fill:none;fill-opacity:1;stroke:#000000;stroke-width:0.80000001;stroke-linejoin:round;stroke-miterlimit:4;stroke-dasharray:none;stroke-opacity:1"
       id="path4139-9-2-1-4-5-8-8-61-92"
       sodipodi:sides="6"
       sodipodi:cx="77.674103"
       sodipodi:cy="66.434525"
       sodipodi:r1="13.21093"
       sodipodi:r2="11.441"
       sodipodi:arg1="0.65351508"
       sodipodi:arg2="1.1771139"
       inkscape:flatsided="true"
       inkscape:rounded="0"
       inkscape:randomized="0"
       d="m 88.162942,74.466518 -12.20033,5.067604 -10.488839,-8.031993 1.711491,-13.099598 12.20033,-5.067604 10.488839,8.031993 z"
       transform="rotate(22.4,-57.914993,-10.393883)" />
    <path
       sodipodi:type="star"
       style="opacity:1;fill:none;fill-opacity:1;stroke:#000000;stroke-width:0.80000001;stroke-linejoin:round;stroke-miterlimit:4;stroke-dasharray:none;stroke-opacity:1"
       id="path4139-9-2-1-4-5-8-8-61-28"
       sodipodi:sides="6"
       sodipodi:cx="77.674103"
       sodipodi:cy="66.434525"
       sodipodi:r1="13.21093"
       sodipodi:r2="11.441"
       sodipodi:arg1="0.65351508"
       sodipodi:arg2="1.1771139"
       inkscape:flatsided="true"
       inkscape:rounded="0"
       inkscape:randomized="0"
       d="m 88.162942,74.466518 -12.20033,5.067604 -10.488839,-8.031993 1.711491,-13.099598 12.20033,-5.067604 10.488839,8.031993 z"
       transform="rotate(22.4,174.34358,99.049416)" />
    <path
       sodipodi:type="star"
       style="opacity:1;fill:none;fill-opacity:1;stroke:#000000;stroke-width:0.80000001;stroke-linejoin:round;stroke-miterlimit:4;stroke-dasharray:none;stroke-opacity:1"
       id="path4139-9-2-1-4-5-8-8-61-38"
       sodipodi:sides="6"
       sodipodi:cx="77.674103"
       sodipodi:cy="66.434525"
       sodipodi:r1="13.21093"
       sodipodi:r2="11.441"
       sodipodi:arg1="0.65351508"
       sodipodi:arg2="1.1771139"
       inkscape:flatsided="true"
       inkscape:rounded="0"
       inkscape:randomized="0"
       d="m 88.162942,74.466518 -12.20033,5.067604 -10.488839,-8.031993 1.711491,-13.099598 12.20033,-5.067604 10.488839,8.031993 z"
       transform="rotate(22.4,194.43298,199.07507)" />
    <path
       sodipodi:type="star"
       style="opacity:1;fill:none;fill-opacity:1;stroke:#000000;stroke-width:0.80000001;stroke-linejoin:round;stroke-miterlimit:4;stroke-dasharray:none;stroke-opacity:1"
       id="path4139-9-2-1-4-5-8-8-61-26"
       sodipodi:sides="6"
       sodipodi:cx="77.674103"
       sodipodi:cy="66.434525"
       sodipodi:r1="13.21093"
       sodipodi:r2="11.441"
       sodipodi:arg1="0.65351508"
       sodipodi:arg2="1.1771139"
       inkscape:flatsided="true"
       inkscape:rounded="0"
       inkscape:randomized="0"
       d="m 88.162942,74.466518 -12.20033,5.067604 -10.488839,-8.031993 1.711491,-13.099598 12.20033,-5.067604 10.488839,8.031993 z"
       transform="rotate(22.4,175.60276,254.88721)" />
    <path
       sodipodi:type="star"
       style="opacity:1;fill:none;fill-opacity:1;stroke:#000000;stroke-width:0.80000001;stroke-linejoin:round;stroke-miterlimit:4;stroke-dasharray:none;stroke-opacity:1"
       id="path4139-9-2-1-4-5-8-8-61-43"
       sodipodi:sides="6"
       sodipodi:cx="77.674103"
       sodipodi:cy="66.434525"
       sodipodi:r1="13.21093"
       sodipodi:r2="11.441"
       sodipodi:arg1="0.65351508"
       sodipodi:arg2="1.1771139"
       inkscape:flatsided="true"
       inkscape:rounded="0"
       inkscape:randomized="0"
       d="m 88.162942,74.466518 -12.20033,5.067604 -10.488839,-8.031993 1.711491,-13.099598 12.20033,-5.067604 10.488839,8.031993 z"
       transform="rotate(22.4,99.022705,322.29799)" />
    <path
       sodipodi:type="star"
       style="opacity:1;fill:none;fill-opacity:1;stroke:#000000;stroke-width:0.80000001;stroke-linejoin:round;stroke-miterlimit:4;stroke-dasharray:none;stroke-opacity:1"
       id="path4139-9-2-1-4-5-8-8-61-25"
       sodipodi:sides="6"
       sodipodi:cx="77.674103"
       sodipodi:cy="66.434525"
       sodipodi:r1="13.21093"
       sodipodi:r2="11.441"
       sodipodi:arg1="0.65351508"
       sodipodi:arg2="1.1771139"
       inkscape:flatsided="true"
       inkscape:rounded="0"
       inkscape:randomized="0"
       d="m 88.162942,74.466518 -12.20033,5.067604 -10.488839,-8.031993 1.711491,-13.099598 12.20033,-5.067604 10.488839,8.031993 z"
       transform="rotate(22.4,41.272866,333.89661)" />
    <path
       sodipodi:type="star"
       style="opacity:1;fill:none;fill-opacity:1;stroke:#000000;stroke-width:0.80000001;stroke-linejoin:round;stroke-miterlimit:4;stroke-dasharray:none;stroke-opacity:1"
       id="path4139-9-2-1-4-5-8-8-61-16"
       sodipodi:sides="6"
       sodipodi:cx="77.674103"
       sodipodi:cy="66.434525"
       sodipodi:r1="13.21093"
       sodipodi:r2="11.441"
       sodipodi:arg1="0.65351508"
       sodipodi:arg2="1.1771139"
       inkscape:flatsided="true"
       inkscape:rounded="0"
       inkscape:randomized="0"
       d="m 88.162942,74.466518 -12.20033,5.067604 -10.488839,-8.031993 1.711491,-13.099598 12.20033,-5.067604 10.488839,8.031993 z"
       transform="rotate(22.4,213.26321,143.26293)" />
    <path
       sodipodi:type="star"
       style="opacity:1;fill:none;fill-opacity:1;stroke:#000000;stroke-width:0.80000001;stroke-linejoin:round;stroke-miterlimit:4;stroke-dasharray:none;stroke-opacity:1"
       id="path4139-9-2-1-4-5-8-8-61-15"
       sodipodi:sides="6"
       sodipodi:cx="77.674103"
       sodipodi:cy="66.434525"
       sodipodi:r1="13.21093"
       sodipodi:r2="11.441"
       sodipodi:arg1="0.65351508"
       sodipodi:arg2="1.1771139"
       inkscape:flatsided="true"
       inkscape:rounded="0"
       inkscape:randomized="0"
       d="m 88.162942,74.466518 -12.20033,5.067604 -10.488839,-8.031993 1.711491,-13.099598 12.20033,-5.067604 10.488839,8.031993 z"
       transform="rotate(22.4,156.77255,310.69936)" />
    <path
       sodipodi:type="star"
       style="opacity:1;fill:none;fill-opacity:1;stroke:#000000;stroke-width:0.80000001;stroke-linejoin:round;stroke-miterlimit:4;stroke-dasharray:none;stroke-opacity:1"
       id="path4139-9-2-1-4-5-8-8-61-81"
       sodipodi:sides="6"
       sodipodi:cx="77.674103"
       sodipodi:cy="66.434525"
       sodipodi:r1="13.21093"
       sodipodi:r2="11.441"
       sodipodi:arg1="0.65351508"
       sodipodi:arg2="1.1771139"
       inkscape:flatsided="true"
       inkscape:rounded="0"
       inkscape:randomized="0"
       d="m 88.162942,74.466518 -12.20033,5.067604 -10.488839,-8.031993 1.711491,-13.099598 12.20033,-5.067604 10.488839,8.031993 z"
       transform="rotate(22.4,193.17379,43.237269)" />
    <path
       sodipodi:type="star"
       style="opacity:1;fill:none;fill-opacity:1;stroke:#000000;stroke-width:0.80000001;stroke-linejoin:round;stroke-miterlimit:4;stroke-dasharray:none;stroke-opacity:1"
       id="path4139-9-2-1-4-5-8-8-61-41"
       sodipodi:sides="6"
       sodipodi:cx="77.674103"
       sodipodi:cy="66.434525"
       sodipodi:r1="13.21093"
       sodipodi:r2="11.441"
       sodipodi:arg1="0.65351508"
       sodipodi:arg2="1.1771139"
       inkscape:flatsided="true"
       inkscape:rounded="0"
       inkscape:randomized="0"
       d="m 88.162942,74.466518 -12.20033,5.067604 -10.488839,-8.031993 1.711491,-13.099598 12.20033,-5.067604 10.488839,8.031993 z"
       transform="rotate(22.4,154.25417,-0.976248)" />
    <path
       id="path4139-9-2-1-4-5-8-8-61-67"
       transform="scale(0.26458333)"
       style="opacity:1;fill:none;fill-opacity:1;stroke:#000000;stroke-width:3.02362204;stroke-linejoin:round;stroke-miterlimit:4;stroke-dasharray:none;stroke-opacity:1"
       d="m 93.847656,251.63672 -41.320312,0.11133 v 5.32422 1.00976 c 0,0.12628 0.100535,0.3025 0,0.37891 -0.47869,0.36373 -0.966959,0.7137 -1.455078,1.06445 v 0.004 0.51367 c 0,0.14135 0.05677,0.29437 0,0.42383 -0.13026,0.29696 -0.199491,0.40804 -0.292969,0.59179 0.0854,-0.066 0.134458,-0.1097 0.226562,-0.17968 0.368996,-0.28041 0.281356,0.41072 0.373047,1.52148 0.217673,2.63704 0.276384,1.2206 -1.021484,4.58008 0.004,0.46954 0.002,0.93905 0.002,1.4082 -0.0057,0.93065 -0.0025,1.86037 -0.002,2.79102 3.32e-4,0.7323 0,1.46496 0,2.19726 -0.09846,0.30531 0.112392,1.75085 0,2.00391 -0.231988,0.52236 -0.539299,1.00757 -0.808594,1.51172 -0.284863,0.30939 0.282408,-0.31217 0.34375,-0.29883 0.156095,0.034 0.0078,0.31905 0.01758,0.47852 0.02305,0.38028 0.07685,0.75894 0.107422,1.13867 0.0091,0.59954 -0.02041,1.19913 -0.02344,1.79883 -7.9e-4,0.1505 0.04938,0.30899 0,0.45117 -0.167925,0.48364 -0.426802,0.92934 -0.640625,1.39453 0.298204,-0.0886 0.186603,-0.26874 0.240234,0.37109 0.05265,0.62781 0.03695,0.42464 0.06836,1.02735 0.117015,1.12877 -0.336396,2.18468 -0.490234,3.2832 0.309883,0.52026 -0.427082,0.73456 -0.466797,1.14453 -0.0064,0.0667 0.09377,-0.21453 0.126953,-0.15625 0.07113,0.12491 0.01909,0.28633 0.0293,0.42969 0.03842,0.54004 0.03891,0.65807 0,0.8418 0.08661,0.42143 0.140006,0.84778 0.126953,1.28124 0.146877,0.27554 0.144296,0.62323 0.228516,0.92969 0.327156,0.96507 0.0249,1.94313 0.04883,2.91211 3.68e-4,0.0202 0.0019,0.0403 0.002,0.0606 0.07967,0.0593 0.164441,0.12705 0.220703,0.15625 0.935687,1.1586 1.00933,0.85119 1.021485,2.32617 0.0019,0.23101 0.0056,0.87075 -0.126954,0.68164 -0.1692,-0.24121 0.0029,-0.59068 -0.01562,-0.88476 -0.06164,-0.98693 -0.826589,1.7981 -1.197266,2.71484 -0.435144,-0.0845 -0.636809,-0.10904 -0.867188,-0.14258 0.0358,0.74848 -0.198376,0.98312 -0.568359,0.9375 0.131747,0.46076 0.223944,0.92924 0.212891,1.41602 -0.003,0.13009 -0.02571,0.25817 -0.04297,0.38672 0.178098,0.30175 0.132728,0.48894 -0.06445,0.59961 -0.0022,0.0294 -0.0086,0.0584 -0.0098,0.0879 -0.0075,-0.0265 -0.01404,-0.0389 -0.02148,-0.0645 -0.70508,0.33476 -2.86961,-0.0751 -3.28711,0.39258 0.14822,0.33123 0.297086,0.66291 0.445313,0.99414 l -0.01563,-0.0137 c -0.510207,-0.51115 -0.586326,-0.805 -0.429688,-0.98047 -0.0847,-0.18928 -0.169204,-0.37907 -0.253906,-0.56836 0.06293,-0.80573 0.237994,-0.84583 -0.07227,-1.63281 -0.08718,-0.35893 -0.193082,-0.71333 -0.261718,-1.07617 -0.0014,-0.003 -0.0027,-0.006 -0.0039,-0.01 v 1.58789 c 1.57e-4,0.1823 -10e-7,0.36451 0,0.54688 v 2.31054 0.90625 c 0.03167,0.36746 0.06876,0.73614 0,1.08399 -2.45e-4,10e-4 2.4e-4,0.003 0,0.004 v 0.32813 c 0,0.18172 0.180466,0.56632 0,0.54492 -0.05127,-0.006 -0.08495,-0.004 -0.134766,-0.01 -0.02064,0.009 -0.05954,0.008 -0.08789,0.0117 -0.01993,0.074 -0.03786,0.14853 -0.05664,0.22266 -0.06743,0.20187 -0.203856,0.50029 -0.201172,0.74414 0.0021,0.18871 0.238463,-0.0145 0.105469,0.40625 -0.171229,0.54139 -0.417444,1.05644 -0.632813,1.58203 0.296042,-0.33283 0.172084,0.13204 -0.03125,0.8086 -0.05654,0.18811 -0.125758,0.30177 -0.169922,0.37304 0.158007,-0.24946 0.188673,-0.30597 0.02344,0.0391 -0.09264,0.0644 -0.07457,0.0435 -0.02344,-0.0391 -0.170727,0.26955 -0.517852,0.79047 -1.015625,1.43946 0.01731,0.005 0.03313,0.017 0.04297,0.0449 0.0011,0.003 0.02602,-0.0297 -0.05078,0.0644 0.07423,0.10003 0.02014,0.25447 0.03516,0.38086 0.104277,0.89394 1.015129,1.93232 -1.519531,2.21875 -0.176711,0.02 -0.319104,0.008 -0.46875,0.002 -0.03659,0.0611 -0.06442,0.1191 -0.111329,0.1836 -5.95e-4,0.38091 0.0096,0.76122 0.01367,1.14258 0.0034,0.77938 -0.0049,1.5585 -0.0039,2.33789 v 2.39062 c -1.7e-5,0.0462 1.3e-5,0.0925 0,0.13867 0.0076,0.16552 -0.0011,0.28933 -0.0078,0.41797 0.02644,0.3919 0.07996,0.8337 0.0078,1.03906 -0.325696,0.92703 -0.477025,1.21515 -0.714844,1.57618 v 0.40039 2.2539 2.47852 l 5.22461,8.99414 49.93164,-0.13672 24.847656,-43.31055 z m -47.0625,20.48437 c -0.112975,0.0964 -0.17211,0.14901 -0.296875,0.25586 -0.02424,0.3329 -0.06885,0.65879 -0.121093,0.98243 0.163907,0.38272 0.299666,0.58174 0.417968,0.66992 -10e-7,-0.0313 2e-6,-0.0625 0,-0.0937 -7e-6,-0.18645 8e-6,-0.37216 0,-0.5586 0,-0.41855 -3.1e-5,-0.83721 0,-1.25586 z m 2.201172,23.36719 c -0.117355,0.009 -0.312432,0.0636 -0.912109,0.0859 -0.07946,0.33969 -0.130736,0.68847 -0.189453,1.03516 -2.7e-5,0.004 4.1e-5,0.0139 0,0.0176 1.500419,-0.103 3.235184,-0.006 1.546875,-0.95117 -0.287711,-0.16116 -0.327958,-0.1968 -0.445313,-0.1875 z" />
    <path
       sodipodi:type="star"
       style="opacity:1;fill:none;fill-opacity:1;stroke:#000000;stroke-width:0.80000001;stroke-linejoin:round;stroke-miterlimit:4;stroke-dasharray:none;stroke-opacity:1"
       id="path4139-9-2-1-4-5-8-8-61-67-9"
       sodipodi:sides="6"
       sodipodi:cx="77.674103"
       sodipodi:cy="66.434525"
       sodipodi:r1="13.21093"
       sodipodi:r2="11.441"
       sodipodi:arg1="0.65351508"
       sodipodi:arg2="1.1771139"
       inkscape:flatsided="true"
       inkscape:rounded="0"
       inkscape:randomized="0"
       d="m 88.162942,74.466518 -12.20033,5.067604 -10.488839,-8.031993 1.711491,-13.099598 12.20033,-5.067604 10.488839,8.031993 z"
       transform="rotate(22.4,-115.66484,1.2047439)" />
    <path
       sodipodi:type="star"
       style="opacity:1;fill:none;fill-opacity:1;stroke:#000000;stroke-width:0.80000001;stroke-linejoin:round;stroke-miterlimit:4;stroke-dasharray:none;stroke-opacity:1"
       id="path4139-9-2-1-4-5-8-8-61-67-2"
       sodipodi:sides="6"
       sodipodi:cx="77.674103"
       sodipodi:cy="66.434525"
       sodipodi:r1="13.21093"
       sodipodi:r2="11.441"
       sodipodi:arg1="0.65351508"
       sodipodi:arg2="1.1771139"
       inkscape:flatsided="true"
       inkscape:rounded="0"
       inkscape:randomized="0"
       d="m 88.162942,74.466518 -12.20033,5.067604 -10.488839,-8.031993 1.711491,-13.099598 12.20033,-5.067604 10.488839,8.031993 z"
       transform="rotate(22.4,-134.49505,57.016893)" />
    <path
       sodipodi:type="star"
       style="opacity:1;fill:none;fill-opacity:1;stroke:#000000;stroke-width:0.80000001;stroke-linejoin:round;stroke-miterlimit:4;stroke-dasharray:none;stroke-opacity:1"
       id="path4139-9-2-1-4-5-8-8-61-67-0"
       sodipodi:sides="6"
       sodipodi:cx="77.674103"
       sodipodi:cy="66.434525"
       sodipodi:r1="13.21093"
       sodipodi:r2="11.441"
       sodipodi:arg1="0.65351508"
       sodipodi:arg2="1.1771139"
       inkscape:flatsided="true"
       inkscape:rounded="0"
       inkscape:randomized="0"
       d="m 88.162942,74.466518 -12.20033,5.067604 -10.488839,-8.031993 1.711491,-13.099598 12.20033,-5.067604 10.488839,8.031993 z"
       transform="rotate(22.4,-114.40564,157.04255)" />
    <path
       sodipodi:type="star"
       style="opacity:1;fill:none;fill-opacity:1;stroke:#000000;stroke-width:0.80000001;stroke-linejoin:round;stroke-miterlimit:4;stroke-dasharray:none;stroke-opacity:1"
       id="path4139-9-2-1-4-5-8-8-61-67-8"
       sodipodi:sides="6"
       sodipodi:cx="77.674103"
       sodipodi:cy="66.434525"
       sodipodi:r1="13.21093"
       sodipodi:r2="11.441"
       sodipodi:arg1="0.65351508"
       sodipodi:arg2="1.1771139"
       inkscape:flatsided="true"
       inkscape:rounded="0"
       inkscape:randomized="0"
       d="m 88.162942,74.466518 -12.20033,5.067604 -10.488839,-8.031993 1.711491,-13.099598 12.20033,-5.067604 10.488839,8.031993 z"
       transform="rotate(22.4,-133.23586,212.8547)" />
    <path
       sodipodi:type="star"
       style="opacity:1;fill:none;fill-opacity:1;stroke:#000000;stroke-width:0.80000001;stroke-linejoin:round;stroke-miterlimit:4;stroke-dasharray:none;stroke-opacity:1"
       id="path4139-9-2-1-4-5-8-8-61-67-03"
       sodipodi:sides="6"
       sodipodi:cx="77.674103"
       sodipodi:cy="66.434525"
       sodipodi:r1="13.21093"
       sodipodi:r2="11.441"
       sodipodi:arg1="0.65351508"
       sodipodi:arg2="1.1771139"
       inkscape:flatsided="true"
       inkscape:rounded="0"
       inkscape:randomized="0"
       d="m 88.162942,74.466518 -12.20033,5.067604 -10.488839,-8.031993 1.711491,-13.099598 12.20033,-5.067604 10.488839,8.031993 z"
       transform="rotate(22.4,-172.15549,168.64118)" />
    <path
       sodipodi:type="star"
       style="opacity:1;fill:none;fill-opacity:1;stroke:#000000;stroke-width:0.80000001;stroke-linejoin:round;stroke-miterlimit:4;stroke-dasharray:none;stroke-opacity:1"
       id="path4139-9-2-1-4-5-8-8-61-67-5"
       sodipodi:sides="6"
       sodipodi:cx="77.674103"
       sodipodi:cy="66.434525"
       sodipodi:r1="13.21093"
       sodipodi:r2="11.441"
       sodipodi:arg1="0.65351508"
       sodipodi:arg2="1.1771139"
       inkscape:flatsided="true"
       inkscape:rounded="0"
       inkscape:randomized="0"
       d="m 88.162942,74.466518 -12.20033,5.067604 -10.488839,-8.031993 1.711491,-13.099598 12.20033,-5.067604 10.488839,8.031993 z"
       transform="rotate(22.4,-153.32527,112.82904)" />
    <path
       sodipodi:type="star"
       style="opacity:1;fill:none;fill-opacity:1;stroke:#000000;stroke-width:0.80000001;stroke-linejoin:round;stroke-miterlimit:4;stroke-dasharray:none;stroke-opacity:1"
       id="path4139-9-2-1-4-5-8-8-61-67-4"
       sodipodi:sides="6"
       sodipodi:cx="77.674103"
       sodipodi:cy="66.434525"
       sodipodi:r1="13.21093"
       sodipodi:r2="11.441"
       sodipodi:arg1="0.65351508"
       sodipodi:arg2="1.1771139"
       inkscape:flatsided="true"
       inkscape:rounded="0"
       inkscape:randomized="0"
       d="m 88.162942,74.466518 -12.20033,5.067604 -10.488839,-8.031993 1.711491,-13.099598 12.20033,-5.067604 10.488839,8.031993 z"
       transform="rotate(22.4,-94.316229,257.06821)" />
    <path
       sodipodi:type="star"
       style="opacity:1;fill:none;fill-opacity:1;stroke:#000000;stroke-width:0.80000001;stroke-linejoin:round;stroke-miterlimit:4;stroke-dasharray:none;stroke-opacity:1"
       id="path4139-9-2-1-4-5-8-8-61-67-99"
       sodipodi:sides="6"
       sodipodi:cx="77.674103"
       sodipodi:cy="66.434525"
       sodipodi:r1="13.21093"
       sodipodi:r2="11.441"
       sodipodi:arg1="0.65351508"
       sodipodi:arg2="1.1771139"
       inkscape:flatsided="true"
       inkscape:rounded="0"
       inkscape:randomized="0"
       d="m 88.162942,74.466518 -12.20033,5.067604 -10.488839,-8.031993 1.711491,-13.099598 12.20033,-5.067604 10.488839,8.031993 z"
       transform="rotate(22.4,-55.396603,301.28172)" />
    <path
       sodipodi:type="star"
       style="opacity:1;fill:none;fill-opacity:1;stroke:#000000;stroke-width:0.80000001;stroke-linejoin:round;stroke-miterlimit:4;stroke-dasharray:none;stroke-opacity:1"
       id="path4139-9-2-1-4-5-8-8-61-67-47"
       sodipodi:sides="6"
       sodipodi:cx="77.674103"
       sodipodi:cy="66.434525"
       sodipodi:r1="13.21093"
       sodipodi:r2="11.441"
       sodipodi:arg1="0.65351508"
       sodipodi:arg2="1.1771139"
       inkscape:flatsided="true"
       inkscape:rounded="0"
       inkscape:randomized="0"
       d="m 88.162942,74.466518 -12.20033,5.067604 -10.488839,-8.031993 1.711491,-13.099598 12.20033,-5.067604 10.488839,8.031993 z"
       transform="rotate(22.4,-16.476976,345.49524)" />
    <path
       sodipodi:type="star"
       style="opacity:1;fill:none;fill-opacity:1;stroke:#000000;stroke-width:0.80000001;stroke-linejoin:round;stroke-miterlimit:4;stroke-dasharray:none;stroke-opacity:1"
       id="path4139-9-2-1-4-5-8-8-61-67-3"
       sodipodi:sides="6"
       sodipodi:cx="77.674103"
       sodipodi:cy="66.434525"
       sodipodi:r1="13.21093"
       sodipodi:r2="11.441"
       sodipodi:arg1="0.65351508"
       sodipodi:arg2="1.1771139"
       inkscape:flatsided="true"
       inkscape:rounded="0"
       inkscape:randomized="0"
       d="m 88.162942,74.466518 -12.20033,5.067604 -10.488839,-8.031993 1.711491,-13.099598 12.20033,-5.067604 10.488839,8.031993 z"
       transform="rotate(22.4,-113.14644,312.88035)" />
    <rect
       style="opacity:1;fill:#000000;fill-opacity:1;stroke:#ffcc00;stroke-width:3.46757627;stroke-linejoin:round;stroke-miterlimit:4;stroke-dasharray:none;stroke-opacity:1"
       id="rect26026"
       width="81.864716"
       height="15.579293"
       x="64.957306"
       y="58.765453" />
    <rect
       style="opacity:1;fill:#000000;fill-opacity:1;stroke:#ffcc00;stroke-width:3.46757627;stroke-linejoin:round;stroke-miterlimit:4;stroke-dasharray:none;stroke-opacity:1"
       id="rect26028"
       width="81.864731"
       height="57.928646"
       x="64.957306"
       y="74.344742" />
    <rect
       style="opacity:1;fill:#000000;fill-opacity:1;stroke:#ffcc00;stroke-width:3.46757627;stroke-linejoin:round;stroke-miterlimit:4;stroke-dasharray:none;stroke-opacity:1"
       id="rect26032"
       width="81.886696"
       height="14.93993"
       x="64.946312"
       y="43.83498" />
    <path
       style="fill:#ff0200;fill-opacity:1;stroke:#ff0200;stroke-width:0.085;stroke-opacity:1;stroke-miterlimit:4;stroke-dasharray:none"
       inkscape:connector-curvature="0"
       d="m 219.15087,-64.247345 h 0.85791 v 0.76181 c 0,1.261777 1.15196,2.284729 2.57288,2.284729 1.42132,0 2.57328,-1.022952 2.57328,-2.284729 v -0.76181 h 0.8575 c 1.42132,0 2.57328,-1.02295 2.57328,-2.285078 0,-1.26178 -1.15196,-2.284731 -2.57328,-2.284731 h -0.8575 v -0.761808 c 0,-1.26178 -1.15196,-2.284731 -2.57328,-2.284731 -1.42092,0 -2.57288,1.022951 -2.57288,2.284731 v 0.761808 h -0.85791 c -1.42091,0 -2.57288,1.022951 -2.57288,2.284731 0,1.262128 1.15197,2.285078 2.57288,2.285078 z m 0,-3.046539 h 1.7154 c 0.47391,0 0.85789,-0.340983 0.85789,-0.761809 v -1.523269 c 0,-0.420477 0.384,-0.761461 0.8575,-0.761461 0.4739,0 0.85789,0.340984 0.85789,0.761461 v 1.523269 c 0,0.420826 0.38399,0.761809 0.85751,0.761809 h 1.71538 c 0.4739,0 0.8579,0.340984 0.8579,0.761461 0,0.420824 -0.384,0.761809 -0.8579,0.761809 h -1.71538 c -0.47352,0 -0.85751,0.340984 -0.85751,0.76146 v 1.523619 c 0,0.420475 -0.38399,0.76146 -0.85789,0.76146 -0.4735,0 -0.8575,-0.340985 -0.8575,-0.76146 v -1.523619 c 0,-0.420476 -0.38398,-0.76146 -0.85789,-0.76146 h -1.7154 c -0.4735,0 -0.85749,-0.340985 -0.85749,-0.761809 0,-0.420477 0.38399,-0.761461 0.85749,-0.761461 z m 0,0"
       id="path2" />
    <path
       style="fill:#ff0200;fill-opacity:1;stroke:#ff0200;stroke-width:0.085;stroke-opacity:1;stroke-miterlimit:4;stroke-dasharray:none"
       inkscape:connector-curvature="0"
       d="m 237.16268,-68.817154 h -5.51131 c -1.14726,-3.604733 -4.85171,-6.093426 -9.06971,-6.093426 -4.218,0 -7.92244,2.488693 -9.06932,6.093426 h -5.5117 c -2.36715,0.0024 -4.28554,1.705964 -4.28829,3.808 v 31.989358 c 0.003,2.102034 1.92114,3.805558 4.28829,3.808347 h 29.16204 c 2.36755,-0.0028 4.28593,-1.706313 4.28869,-3.808347 v -31.989358 c -0.003,-2.102036 -1.92114,-3.805559 -4.28869,-3.808 z m -14.58102,10.662887 c 4.21564,-0.0063 7.91616,-2.492528 9.06971,-6.093078 h 4.65382 v 30.465739 h -27.44666 v -30.465739 h 4.65381 c 1.15316,3.60055 4.85368,6.086802 9.06932,6.093078 z m 0,-15.232694 c 4.26354,0 7.71946,3.068852 7.71946,6.854538 0,3.786035 -3.45592,6.854887 -7.71946,6.854887 -4.26316,0 -7.71946,-3.068852 -7.71946,-6.854887 0.004,-3.783943 3.45827,-6.850355 7.71946,-6.854538 z m 17.15431,40.367165 c 0,1.261779 -1.15197,2.284728 -2.57329,2.284728 h -29.16204 c -1.42092,0 -2.57289,-1.022949 -2.57289,-2.284728 v -31.989358 c 0,-1.261779 1.15197,-2.28473 2.57289,-2.28473 h 5.19014 c -0.0259,0.25138 -0.044,0.504154 -0.044,0.761461 0,0.257655 0.0181,0.510428 0.044,0.761809 h -4.33225 c -0.94741,0 -1.7154,0.681966 -1.7154,1.523269 v 30.465739 c 0,0.841303 0.76799,1.52327 1.7154,1.52327 h 27.44666 c 0.9474,0 1.71539,-0.681967 1.71539,-1.52327 v -30.465739 c 0,-0.841303 -0.76799,-1.523269 -1.71539,-1.523269 h -4.33226 c 0.0255,-0.251381 0.0436,-0.504154 0.0436,-0.761809 0,-0.257307 -0.0181,-0.510081 -0.0436,-0.761461 h 5.18975 c 1.42132,0 2.57329,1.022951 2.57329,2.28473 z m 0,0"
       id="path4" />
    <path
       style="fill:#ff0200;fill-opacity:1;stroke:#ff0200;stroke-width:0.085;stroke-opacity:1;stroke-miterlimit:4;stroke-dasharray:none"
       inkscape:connector-curvature="0"
       d="m 212.28931,-50.537571 c 0.47351,0 0.8575,-0.340984 0.8575,-0.761809 0,-0.420476 -0.38399,-0.76146 -0.8575,-0.76146 v -3.046888 h 4.28868 c 0.4735,0 0.8575,-0.340983 0.8575,-0.76146 0,-0.420826 -0.384,-0.76181 -0.8575,-0.76181 h -4.28868 c -0.94741,0 -1.71539,0.681969 -1.71539,1.52327 v 3.046888 c 0,0.841303 0.76798,1.523269 1.71539,1.523269 z m 0,0"
       id="path6" />
    <path
       style="fill:#ff0200;fill-opacity:1;stroke:#ff0200;stroke-width:0.085;stroke-opacity:1;stroke-miterlimit:4;stroke-dasharray:none"
       inkscape:connector-curvature="0"
       d="m 215.46881,-53.360972 c -0.33648,-0.288685 -0.87163,-0.284501 -1.20222,0.0091 -0.33099,0.293916 -0.3357,0.768783 -0.0106,1.06758 l 1.71539,1.523617 c 0.33491,0.297054 0.87791,0.297054 1.21283,0 l 4.28868,-3.808349 c 0.3251,-0.298796 0.32038,-0.774011 -0.0106,-1.067577 -0.33097,-0.293916 -0.86574,-0.2981 -1.20222,-0.0094 l -3.68207,3.269679 z m 0,0"
       id="path8" />
    <path
       style="fill:#ff0200;fill-opacity:1;stroke:#ff0200;stroke-width:0.085;stroke-opacity:1;stroke-miterlimit:4;stroke-dasharray:none"
       inkscape:connector-curvature="0"
       d="m 232.87439,-54.34592 h 0.85751 c 0.4739,0 0.85789,-0.340983 0.85789,-0.761808 0,-0.420476 -0.38399,-0.76146 -0.85789,-0.76146 h -0.85751 c -0.47389,0 -0.85788,0.340984 -0.85788,0.76146 0,0.420825 0.38399,0.761808 0.85788,0.761808 z m 0,0"
       id="path10" />
    <path
       style="fill:#ff0200;fill-opacity:1;stroke:#ff0200;stroke-width:0.085;stroke-opacity:1;stroke-miterlimit:4;stroke-dasharray:none"
       inkscape:connector-curvature="0"
       d="m 225.15494,-54.34592 h 4.28868 c 0.4735,0 0.8575,-0.340983 0.8575,-0.761808 0,-0.420476 -0.384,-0.76146 -0.8575,-0.76146 h -4.28868 c -0.4739,0 -0.85788,0.340984 -0.85788,0.76146 0,0.420825 0.38398,0.761808 0.85788,0.761808 z m 0,0"
       id="path12" />
    <path
       style="fill:#ff0200;fill-opacity:1;stroke:#ff0200;stroke-width:0.085;stroke-opacity:1;stroke-miterlimit:4;stroke-dasharray:none"
       inkscape:connector-curvature="0"
       d="m 225.15494,-51.29938 h 6.86157 c 0.4739,0 0.85788,-0.340984 0.85788,-0.76146 0,-0.420826 -0.38398,-0.761809 -0.85788,-0.761809 h -6.86157 c -0.4739,0 -0.85788,0.340983 -0.85788,0.761809 0,0.420476 0.38398,0.76146 0.85788,0.76146 z m 0,0"
       id="path14" />
    <path
       style="fill:#ff0200;fill-opacity:1;stroke:#ff0200;stroke-width:0.085;stroke-opacity:1;stroke-miterlimit:4;stroke-dasharray:none"
       inkscape:connector-curvature="0"
       d="m 212.28931,-42.921223 c 0.47351,0 0.8575,-0.340983 0.8575,-0.761809 0,-0.420477 -0.38399,-0.761461 -0.8575,-0.761461 v -3.046539 h 4.28868 c 0.4735,0 0.8575,-0.340983 0.8575,-0.761809 0,-0.420478 -0.384,-0.761461 -0.8575,-0.761461 h -4.28868 c -0.94741,0 -1.71539,0.681968 -1.71539,1.52327 v 3.046539 c 0,0.841304 0.76798,1.52327 1.71539,1.52327 z m 0,0"
       id="path16" />
    <path
       style="fill:#ff0200;fill-opacity:1;stroke:#ff0200;stroke-width:0.085;stroke-opacity:1;stroke-miterlimit:4;stroke-dasharray:none"
       inkscape:connector-curvature="0"
       d="m 220.26005,-48.029703 -3.68206,3.269677 -1.10918,-0.984597 c -0.33648,-0.288686 -0.87163,-0.284502 -1.20222,0.0091 -0.33099,0.293916 -0.3357,0.769131 -0.0106,1.067928 l 1.71539,1.52327 c 0.33491,0.297403 0.87791,0.297403 1.21283,0 l 4.28868,-3.808347 c 0.3251,-0.298799 0.32038,-0.773663 -0.0106,-1.067579 -0.33097,-0.293916 -0.86574,-0.298101 -1.20222,-0.0094 z m 0,0"
       id="path18" />
    <path
       style="fill:#ff0200;fill-opacity:1;stroke:#ff0200;stroke-width:0.085;stroke-opacity:1;stroke-miterlimit:4;stroke-dasharray:none"
       inkscape:connector-curvature="0"
       d="m 233.7319,-48.252841 h -0.85751 c -0.47389,0 -0.85788,0.340983 -0.85788,0.761809 0,0.420476 0.38399,0.76146 0.85788,0.76146 h 0.85751 c 0.4739,0 0.85789,-0.340984 0.85789,-0.76146 0,-0.420826 -0.38399,-0.761809 -0.85789,-0.761809 z m 0,0"
       id="path20" />
    <path
       style="fill:#ff0200;fill-opacity:1;stroke:#ff0200;stroke-width:0.085;stroke-opacity:1;stroke-miterlimit:4;stroke-dasharray:none"
       inkscape:connector-curvature="0"
       d="m 225.15494,-46.729572 h 4.28868 c 0.4735,0 0.8575,-0.340984 0.8575,-0.76146 0,-0.420826 -0.384,-0.761809 -0.8575,-0.761809 h -4.28868 c -0.4739,0 -0.85788,0.340983 -0.85788,0.761809 0,0.420476 0.38398,0.76146 0.85788,0.76146 z m 0,0"
       id="path22" />
    <path
       style="fill:#ff0200;fill-opacity:1;stroke:#ff0200;stroke-width:0.085;stroke-opacity:1;stroke-miterlimit:4;stroke-dasharray:none"
       inkscape:connector-curvature="0"
       d="m 225.15494,-43.683032 h 6.86157 c 0.4739,0 0.85788,-0.340983 0.85788,-0.761461 0,-0.420826 -0.38398,-0.761809 -0.85788,-0.761809 h -6.86157 c -0.4739,0 -0.85788,0.340983 -0.85788,0.761809 0,0.420478 0.38398,0.761461 0.85788,0.761461 z m 0,0"
       id="path24" />
    <path
       style="fill:#ff0200;fill-opacity:1;stroke:#ff0200;stroke-width:0.085;stroke-opacity:1;stroke-miterlimit:4;stroke-dasharray:none"
       inkscape:connector-curvature="0"
       d="m 212.28931,-35.304876 c 0.47351,0 0.8575,-0.340983 0.8575,-0.76146 0,-0.420826 -0.38399,-0.76181 -0.8575,-0.76181 v -3.046539 h 4.28868 c 0.4735,0 0.8575,-0.340983 0.8575,-0.761458 0,-0.420829 -0.384,-0.761809 -0.8575,-0.761809 h -4.28868 c -0.94741,0 -1.71539,0.681964 -1.71539,1.523267 v 3.046539 c 0,0.841304 0.76798,1.52327 1.71539,1.52327 z m 0,0"
       id="path26" />
    <path
       style="fill:#ff0200;fill-opacity:1;stroke:#ff0200;stroke-width:0.085;stroke-opacity:1;stroke-miterlimit:4;stroke-dasharray:none"
       inkscape:connector-curvature="0"
       d="m 220.26005,-40.413006 -3.68206,3.269676 -1.10918,-0.984946 c -0.33648,-0.288686 -0.87163,-0.284501 -1.20222,0.0094 -0.33099,0.293567 -0.3357,0.768782 -0.0106,1.067579 l 1.71539,1.523269 c 0.33491,0.297403 0.87791,0.297403 1.21283,0 l 4.28868,-3.808 c 0.3251,-0.299143 0.32038,-0.774009 -0.0106,-1.067926 -0.33097,-0.293567 -0.86574,-0.297751 -1.20222,-0.0091 z m 0,0"
       id="path28" />
    <path
       style="fill:#ff0200;fill-opacity:1;stroke:#ff0200;stroke-width:0.085;stroke-opacity:1;stroke-miterlimit:4;stroke-dasharray:none"
       inkscape:connector-curvature="0"
       d="m 233.7319,-40.636143 h -0.85751 c -0.47389,0 -0.85788,0.340982 -0.85788,0.761458 0,0.420826 0.38399,0.76181 0.85788,0.76181 h 0.85751 c 0.4739,0 0.85789,-0.340984 0.85789,-0.76181 0,-0.420476 -0.38399,-0.761458 -0.85789,-0.761458 z m 0,0"
       id="path30" />
    <path
       style="fill:#ff0200;fill-opacity:1;stroke:#ff0200;stroke-width:0.085;stroke-opacity:1;stroke-miterlimit:4;stroke-dasharray:none"
       inkscape:connector-curvature="0"
       d="m 225.15494,-39.112875 h 4.28868 c 0.4735,0 0.8575,-0.340984 0.8575,-0.76181 0,-0.420476 -0.384,-0.761458 -0.8575,-0.761458 h -4.28868 c -0.4739,0 -0.85788,0.340982 -0.85788,0.761458 0,0.420826 0.38398,0.76181 0.85788,0.76181 z m 0,0"
       id="path32" />
    <path
       style="fill:#ff0200;fill-opacity:1;stroke:#ff0200;stroke-width:0.085;stroke-opacity:1;stroke-miterlimit:4;stroke-dasharray:none"
       inkscape:connector-curvature="0"
       d="m 225.15494,-36.066336 h 6.86157 c 0.4739,0 0.85788,-0.340984 0.85788,-0.76181 0,-0.420476 -0.38398,-0.761459 -0.85788,-0.761459 h -6.86157 c -0.4739,0 -0.85788,0.340983 -0.85788,0.761459 0,0.420826 0.38398,0.76181 0.85788,0.76181 z m 0,0"
       id="path34" />
    <path
       style="fill:#ff0200;fill-opacity:1;stroke:#ff0200;stroke-width:0.085;stroke-opacity:1;stroke-miterlimit:4;stroke-dasharray:none"
       inkscape:connector-curvature="0"
       d="m 249.51397,-65.009154 h -4.11709 c -1.32237,0.09135 -2.31611,1.109765 -2.23013,2.285079 v 25.13447 c 0,0.08507 0.0161,0.169445 0.0479,0.249636 l 2.79355,7.138344 c 0.17275,0.581901 0.76404,0.988086 1.44133,0.990176 0.67768,0.002 1.27212,-0.400254 1.44919,-0.981112 l 2.79709,-7.148105 c 0.0318,-0.07985 0.0479,-0.164217 0.0479,-0.248939 v -25.13447 c 0.0864,-1.175314 -0.90775,-2.193732 -2.22973,-2.285079 z m -0.5002,29.881745 c -1.02202,-0.23639 -2.09546,-0.23639 -3.11786,0 l -0.6655,-1.700737 h 4.44965 z m -4.13163,-20.741779 v -2.285079 h 5.14618 v 2.285079 z m 3.43078,17.517773 v -9.901426 c 0,-0.420478 -0.38399,-0.761461 -0.8575,-0.761461 -0.4739,0 -0.85789,0.340983 -0.85789,0.761461 v 9.901426 h -1.71539 V -54.34592 h 1.71539 v 3.04654 c 0,0.420825 0.38399,0.761809 0.85789,0.761809 0.47351,0 0.8575,-0.340984 0.8575,-0.761809 v -3.04654 h 1.7154 v 15.994505 z m -2.91604,-25.13412 h 4.11709 c 0.24343,0 0.51435,0.325991 0.51435,0.76146 v 3.046539 h -5.14618 v -3.046539 c 0,-0.435469 0.27091,-0.76146 0.51474,-0.76146 z m 2.05854,32.340103 -0.99491,-2.542386 c 0.65607,-0.12447 1.33454,-0.12447 1.99062,0 z m 0,0"
       id="path36" />
    <g
       transform="matrix(0.10723386,0,0,0.09324909,77.604009,79.822606)"
       id="g6"
       style="fill:#ffcc00;fill-opacity:1;stroke:#000000;stroke-opacity:1">
      <g
         id="g4"
         style="fill:#ffcc00;fill-opacity:1;stroke:#000000;stroke-opacity:1">
        <path
           inkscape:connector-curvature="0"
           d="M 372.29,50.758 H 28.831 C 12.933,50.758 0,63.691 0,79.588 v 206.056 c 0,15.897 12.933,28.831 28.831,28.831 h 22.271 v 76.71 c 0,4.884 2.942,9.289 7.456,11.159 1.494,0.62 3.064,0.92 4.62,0.92 3.144,0 6.232,-1.228 8.543,-3.538 l 85.251,-85.25 h 17.104 c 6.671,0 12.078,-5.407 12.078,-12.078 0,-6.672 -5.409,-12.079 -12.078,-12.079 0,0 -22.69,0.016 -22.927,0.04 -2.812,0.191 -5.572,1.349 -7.722,3.498 l -68.169,68.169 c 0,0 -0.021,-60.392 -0.06,-60.705 -0.545,-6.166 -5.717,-11.002 -12.024,-11.002 H 28.831 c -2.578,0 -4.674,-2.097 -4.674,-4.674 V 79.588 c 0,-2.578 2.097,-4.674 4.674,-4.674 H 372.29 c 2.578,0 4.674,2.097 4.674,4.674 v 79.055 c 0,6.671 5.409,12.078 12.078,12.078 6.669,0 12.078,-5.407 12.078,-12.078 V 79.588 c 0,-15.897 -12.933,-28.83 -28.83,-28.83 z"
           id="path2-4"
           style="fill:#ffcc00;fill-opacity:1;stroke:#000000;stroke-opacity:1" />
      </g>
    </g>
    <g
       transform="matrix(0.10723386,0,0,0.09324909,77.604009,79.822606)"
       id="g12"
       style="fill:#ffcc00;fill-opacity:1;stroke:#000000;stroke-opacity:1">
      <g
         id="g10"
         style="fill:#ffcc00;fill-opacity:1;stroke:#000000;stroke-opacity:1">
        <path
           inkscape:connector-curvature="0"
           d="M 483.169,198.492 H 242.754 c -15.897,0 -28.831,12.933 -28.831,28.831 v 140.57 c 0,15.897 12.933,28.831 28.831,28.831 h 150.514 l 60.98,60.98 c 2.311,2.311 5.4,3.538 8.543,3.538 1.556,0 3.126,-0.301 4.62,-0.92 4.512,-1.87 7.456,-6.273 7.456,-11.159 v -52.44 h 8.301 c 15.897,0 28.831,-12.933 28.831,-28.831 v -140.57 c 10e-4,-15.897 -12.932,-28.83 -28.83,-28.83 z m 4.675,169.401 c 0,2.577 -2.097,4.674 -4.674,4.674 h -20.376 c -6.356,0 -11.554,4.912 -12.031,11.147 -0.031,0.264 -0.051,36.29 -0.051,36.29 l -43.854,-43.855 c -0.046,-0.046 -0.094,-0.089 -0.14,-0.135 -0.172,-0.168 -0.335,-0.314 -0.489,-0.445 -2.126,-1.864 -4.903,-3.003 -7.951,-3.003 H 242.754 c -2.578,0 -4.674,-2.097 -4.674,-4.674 v -140.57 c 0,-2.578 2.097,-4.674 4.674,-4.674 H 483.17 c 2.577,0 4.674,2.097 4.674,4.674 z"
           id="path8-3"
           style="fill:#ffcc00;fill-opacity:1;stroke:#000000;stroke-opacity:1" />
      </g>
    </g>
    <g
       transform="matrix(0.10723386,0,0,0.09324909,77.604009,79.822606)"
       id="g18"
       style="fill:#ffcc00;fill-opacity:1;stroke:#000000;stroke-opacity:1">
      <g
         id="g16"
         style="fill:#ffcc00;fill-opacity:1;stroke:#000000;stroke-opacity:1">
        <path
           inkscape:connector-curvature="0"
           d="m 362.964,285.53 c -6.667,0 -12.078,5.411 -12.078,12.078 0,6.667 5.411,12.078 12.078,12.078 6.668,0 12.078,-5.411 12.078,-12.078 0,-6.667 -5.411,-12.078 -12.078,-12.078 z"
           id="path14-7"
           style="fill:#ffcc00;fill-opacity:1;stroke:#000000;stroke-opacity:1" />
      </g>
    </g>
    <g
       transform="matrix(0.10723386,0,0,0.09324909,77.604009,79.822606)"
       id="g24"
       style="fill:#ffcc00;fill-opacity:1;stroke:#000000;stroke-opacity:1">
      <g
         id="g22"
         style="fill:#ffcc00;fill-opacity:1;stroke:#000000;stroke-opacity:1">
        <path
           inkscape:connector-curvature="0"
           d="m 310.472,130.611 c 0,0 -219.822,0 -219.822,0 -6.67,0 -12.078,5.407 -12.078,12.078 0,6.671 5.409,12.078 12.078,12.078 h 219.822 c 6.67,0 12.078,-5.407 12.078,-12.078 0,-6.671 -5.408,-12.078 -12.078,-12.078 z"
           id="path20-1"
           style="fill:#ffcc00;fill-opacity:1;stroke:#000000;stroke-opacity:1" />
      </g>
    </g>
    <g
       transform="matrix(0.10723386,0,0,0.09324909,77.604009,79.822606)"
       id="g30"
       style="fill:#ffcc00;fill-opacity:1;stroke:#000000;stroke-opacity:1">
      <g
         id="g28"
         style="fill:#ffcc00;fill-opacity:1;stroke:#000000;stroke-opacity:1">
        <path
           inkscape:connector-curvature="0"
           d="M 174.075,210.465 H 90.65 c -6.67,0 -12.078,5.407 -12.078,12.078 0,6.671 5.409,12.078 12.078,12.078 h 83.425 c 6.671,0 12.078,-5.407 12.078,-12.078 0,-6.671 -5.408,-12.078 -12.078,-12.078 z"
           id="path26-3"
           style="fill:#ffcc00;fill-opacity:1;stroke:#000000;stroke-opacity:1" />
      </g>
    </g>
    <g
       transform="matrix(0.10723386,0,0,0.09324909,77.604009,79.822606)"
       id="g36"
       style="fill:#ffcc00;fill-opacity:1;stroke:#000000;stroke-opacity:1">
      <g
         id="g34"
         style="fill:#ffcc00;fill-opacity:1;stroke:#000000;stroke-opacity:1">
        <path
           inkscape:connector-curvature="0"
           d="m 306.837,285.53 c -6.666,0 -12.078,5.411 -12.078,12.078 0,6.667 5.412,12.078 12.078,12.078 6.668,0 12.078,-5.411 12.078,-12.078 0,-6.667 -5.41,-12.078 -12.078,-12.078 z"
           id="path32-6"
           style="fill:#ffcc00;fill-opacity:1;stroke:#000000;stroke-opacity:1" />
      </g>
    </g>
    <g
       transform="matrix(0.10723386,0,0,0.09324909,77.604009,79.822606)"
       id="g42"
       style="fill:#ffcc00;fill-opacity:1;stroke:#000000;stroke-opacity:1">
      <g
         id="g40"
         style="fill:#ffcc00;fill-opacity:1;stroke:#000000;stroke-opacity:1">
        <path
           inkscape:connector-curvature="0"
           d="m 419.079,285.53 c -6.667,0 -12.078,5.411 -12.078,12.078 0,6.667 5.411,12.078 12.078,12.078 6.668,0 12.078,-5.411 12.078,-12.078 0,-6.667 -5.411,-12.078 -12.078,-12.078 z"
           id="path38"
           style="fill:#ffcc00;fill-opacity:1;stroke:#000000;stroke-opacity:1" />
      </g>
    </g>
  </g>
</svg>
