<?xml version="1.0" encoding="UTF-8" standalone="no"?>
<!-- Created with Inkscape (http://www.inkscape.org/) -->

<svg
   xmlns:osb="http://www.openswatchbook.org/uri/2009/osb"
   xmlns:dc="http://purl.org/dc/elements/1.1/"
   xmlns:cc="http://creativecommons.org/ns#"
   xmlns:rdf="http://www.w3.org/1999/02/22-rdf-syntax-ns#"
   xmlns:svg="http://www.w3.org/2000/svg"
   xmlns="http://www.w3.org/2000/svg"
   xmlns:sodipodi="http://sodipodi.sourceforge.net/DTD/sodipodi-0.dtd"
   xmlns:inkscape="http://www.inkscape.org/namespaces/inkscape"
   width="210mm"
   height="297mm"
   viewBox="0 0 210 297"
   version="1.1"
   id="svg26117"
   inkscape:version="0.92.4 (5da689c313, 2019-01-14)"
   sodipodi:docname="MeetingApiAry.svg">
  <defs
     id="defs26111">
    <linearGradient
       osb:paint="gradient"
       id="linearGradient25368">
      <stop
         id="stop25364"
         offset="0"
         style="stop-color:#000000;stop-opacity:1;" />
      <stop
         id="stop25366"
         offset="1"
         style="stop-color:#000000;stop-opacity:0;" />
    </linearGradient>
    <linearGradient
       osb:paint="solid"
       id="linearGradient25350">
      <stop
         id="stop25348"
         offset="0"
         style="stop-color:#000000;stop-opacity:1;" />
    </linearGradient>
  </defs>
  <sodipodi:namedview
     id="base"
     pagecolor="#ffffff"
     bordercolor="#666666"
     borderopacity="1.0"
     inkscape:pageopacity="0.0"
     inkscape:pageshadow="2"
     inkscape:zoom="0.49497475"
     inkscape:cx="97.725723"
     inkscape:cy="670.33216"
     inkscape:document-units="mm"
     inkscape:current-layer="layer1"
     showgrid="true"
     inkscape:window-width="1680"
     inkscape:window-height="987"
     inkscape:window-x="-8"
     inkscape:window-y="-8"
     inkscape:window-maximized="1">
    <inkscape:grid
       type="xygrid"
       id="grid26903" />
  </sodipodi:namedview>
  <metadata
     id="metadata26114">
    <rdf:RDF>
      <cc:Work
         rdf:about="">
        <dc:format>image/svg+xml</dc:format>
        <dc:type
           rdf:resource="http://purl.org/dc/dcmitype/StillImage" />
        <dc:title></dc:title>
      </cc:Work>
    </rdf:RDF>
  </metadata>
  <g
     inkscape:label="Ebene 1"
     inkscape:groupmode="layer"
     id="layer1">
    <g
       id="layer1-3"
       inkscape:label="Ebene 1"
       transform="matrix(1.125,0,0,1.0555556,-13.229155,-16.500005)"
       style="stroke-width:0.91766292">
      <path
         sodipodi:nodetypes="scsssss"
         inkscape:connector-curvature="0"
         id="path3729-9"
         d="m 190.49999,106.5 c 0,31.75 -29.33332,79.375 -50.49999,119.0625 C 118.83334,265.25 105.83333,297 105.83333,297 105.83333,297 91.166666,265.25 70,225.5625 48.833334,185.875 21.166666,138.25 21.166664,106.5 c -2e-6,-46.760108 37.906558,-84.666665 84.666666,-84.666664 46.76011,2e-6 84.66665,37.906558 84.66666,84.666664 z"
         style="stroke-width:0.2427983" />
      <circle
         r="74.083336"
         cy="106.5"
         cx="105.83333"
         id="path3742-3"
         style="fill:#ffffff;stroke-width:0.2427983" />
    </g>
    <path
       style="opacity:0.746;fill:#008000;fill-opacity:1;stroke:#008000;stroke-width:3.52777791;stroke-linejoin:round;stroke-miterlimit:4;stroke-dasharray:none;stroke-opacity:1"
       id="path27173"
       sodipodi:type="arc"
       sodipodi:cx="106.05169"
       sodipodi:cy="96.432709"
       sodipodi:rx="79.158554"
       sodipodi:ry="74.102402"
       sodipodi:start="0"
       sodipodi:end="6.2762214"
       sodipodi:open="true"
       d="M 185.21024,96.432709 A 79.158554,74.102402 0 0 1 106.1895,170.535 79.158554,74.102402 0 0 1 26.893615,96.690729 79.158554,74.102402 0 0 1 105.63825,22.331318 79.158554,74.102402 0 0 1 185.20832,95.916671" />
    <g
       transform="matrix(0.26458333,0,0,0.26458333,40.745834,-3.3020827)"
       id="g8">
      <g
         id="g6">
        <polygon
           style="fill:#010002"
           points="136,144 135,181 73,236 73,144 "
           id="polygon2" />
        <polygon
           style="fill:#010002"
           points="492,340 247,124 246,123 245,124 0,340 26,369 246,175 466,369 "
           id="polygon4" />
      </g>
    </g>
    <g
       transform="matrix(0.95287522,0,0,1.0144842,67.093238,74.491229)"
       id="g4"
       style="stroke-width:0.26910505">
      <path
         inkscape:connector-curvature="0"
         d="m 48.355,17.922 c 3.705,2.323 6.303,6.254 6.776,10.817 1.511,0.706 3.188,1.112 4.966,1.112 6.491,0 11.752,-5.261 11.752,-11.751 0,-6.491 -5.261,-11.752 -11.752,-11.752 -6.429,0.002 -11.644,5.169 -11.742,11.574 z m -7.699,24.062 c 6.491,0 11.752,-5.262 11.752,-11.752 0,-6.49 -5.262,-11.751 -11.752,-11.751 -6.49,0 -11.754,5.262 -11.754,11.752 0,6.49 5.264,11.751 11.754,11.751 z m 4.985,0.801 h -9.972 c -8.297,0 -15.047,6.751 -15.047,15.048 v 12.195 l 0.031,0.191 0.84,0.263 c 7.918,2.474 14.797,3.299 20.459,3.299 11.059,0 17.469,-3.153 17.864,-3.354 l 0.785,-0.397 h 0.084 V 57.833 C 60.688,49.536 53.938,42.785 45.641,42.785 Z M 65.084,30.653 h -9.895 c -0.107,3.959 -1.797,7.524 -4.47,10.088 7.375,2.193 12.771,9.032 12.771,17.11 v 3.758 c 9.77,-0.358 15.4,-3.127 15.771,-3.313 l 0.785,-0.398 H 80.13 V 45.699 c 0,-8.296 -6.75,-15.046 -15.046,-15.046 z m -45.049,-0.8 c 2.299,0 4.438,-0.671 6.25,-1.814 0.576,-3.757 2.59,-7.04 5.467,-9.276 0.012,-0.22 0.033,-0.438 0.033,-0.66 0,-6.491 -5.262,-11.752 -11.75,-11.752 -6.492,0 -11.752,5.261 -11.752,11.752 0,6.488 5.26,11.75 11.752,11.75 z M 30.589,40.741 C 27.929,38.19 26.245,34.644 26.122,30.709 25.755,30.682 25.392,30.653 25.018,30.653 H 15.047 C 6.75,30.653 0,37.403 0,45.699 v 12.197 l 0.031,0.188 0.84,0.265 c 6.352,1.983 12.021,2.897 16.945,3.185 v -3.683 c 0.002,-8.078 5.396,-14.915 12.773,-17.11 z"
         id="path2"
         style="stroke-width:0.26910505" />
    </g>
  </g>
</svg>
